#######################################################
#              BOX-FIT. Release 2 
# Last modified: July 29, 2016, by HJvE 
#
# reference: "Gamma-ray burst afterglow broadband 
#   fitting based directly on hydrodynamics simulations"
#   H.J. van Eerten, A.J. van der Horst, A.I. MacFadyen
#   ApJ (2012) Issue 749, Page 44
#   ArXiv: 1110.5089
#
# Development of the Boxfit code was supported in part 
# by NASA through grant NNX10AF62G issued through the 
# Astrophysics Theory Program and by the NSF through 
# grant AST-1009863.
#######################################################
# BOXFIT Compiled WITH boosted frames support
# I/O settings:
#   using parameter file /Volumes/Storage/taylor/git_projects/SSC_boxfit/settings/1e53/log_ee_eb_1e3_sync/XRTsettings.txt
#   base filename BOX files: /Volumes/storage/taylor/git_projects/SSC_boxfit/data/boxboostISM/boxboostISM_
#   Not storing intermediate d F / d t_e
#####################################################
# radiation switches
#   synchrotron self-absorption is enabled
#   synchrotron self-absorption is computed globally for each ray.
#   electron cooling is enabled
#   box data is included
#   Blandford-McKee analytical data is included
#   Calculating forward jet only.
#####################################################
# Model parameter settings:
#   theta_0 = 4.500000e-01 (rad)
#   E_iso = 1.000000e+53 (erg)
#   n_0 = 5.000000e-01 (cm^-3)
#   theta_obs = 0.000000e+00 (rad)
#   p = 2.500000e+00
#   epsilon_B = 1.000000e-05
#   epsilon_E = 1.000000e-01
#   ksi_N = 1.000000e+00
###################################################
# Time and frequency settings
#   nu_0 = 2.420000e+17 (Hz)
#   t_0 = 1.000000e+01 (s), t_1 = 4.000000e+07 (s)
#####################################################
# Observer distance settings
#   luminosity distance: 1.000000e+28 (cm)
#   redshift: 5.000000e-01
#####################################################
# BOX data:
#   number of boxes: 23
#   box 0 : theta_0 = 1.000000e-02
#   box 1 : theta_0 = 2.000000e-02
#   box 2 : theta_0 = 3.000000e-02
#   box 3 : theta_0 = 4.000000e-02
#   box 4 : theta_0 = 4.500000e-02
#   box 5 : theta_0 = 5.000000e-02
#   box 6 : theta_0 = 7.500000e-02
#   box 7 : theta_0 = 1.000000e-01
#   box 8 : theta_0 = 1.250000e-01
#   box 9 : theta_0 = 1.500000e-01
#   box 10 : theta_0 = 1.750000e-01
#   box 11 : theta_0 = 2.000000e-01
#   box 12 : theta_0 = 2.250000e-01
#   box 13 : theta_0 = 2.500000e-01
#   box 14 : theta_0 = 2.750000e-01
#   box 15 : theta_0 = 3.000000e-01
#   box 16 : theta_0 = 3.250000e-01
#   box 17 : theta_0 = 3.500000e-01
#   box 18 : theta_0 = 3.750000e-01
#   box 19 : theta_0 = 4.000000e-01
#   box 20 : theta_0 = 4.250000e-01
#   box 21 : theta_0 = 4.500000e-01
#   box 22 : theta_0 = 5.000000e-01
#   Box boost Lorentz factor: 5.000000e+00
#   Counter-jet data is not available in the BOX files.
#   BOX data for k = 0 (ISM environment).
#####################################################
# Resolution settings:
#   BM / BOX emission time resolution 'res' = 300
#   EDS resolution: phi rays = 60, r rays = 300
#   EDS ur_max computed dynamically
#   Emission time t_0 computed dynamically
#   Emission time t_1 computed dynamically
#   Starting Blandford-McKee fluid Lorentz factor: 3.000000e+02
#   EDS outer radius estimated analytically
#   Emission frame time t0 estimated analytically.
#   Emission frame time t1 estimated analytically.
#####################################################
# i, t (s), nu (Hz), F (mJy)
0, 1.000000e+01, 2.420000e+17, 0.000000e+00
1, 1.017053e+01, 2.420000e+17, 0.000000e+00
2, 1.034398e+01, 2.420000e+17, 0.000000e+00
3, 1.052038e+01, 2.420000e+17, 0.000000e+00
4, 1.069979e+01, 2.420000e+17, 0.000000e+00
5, 1.088226e+01, 2.420000e+17, 0.000000e+00
6, 1.106784e+01, 2.420000e+17, 1.398845e-03
7, 1.125658e+01, 2.420000e+17, 8.891575e-03
8, 1.144854e+01, 2.420000e+17, 1.754865e-02
9, 1.164378e+01, 2.420000e+17, 2.290218e-02
10, 1.184235e+01, 2.420000e+17, 2.548421e-02
11, 1.204430e+01, 2.420000e+17, 3.383062e-02
12, 1.224970e+01, 2.420000e+17, 4.333019e-02
13, 1.245860e+01, 2.420000e+17, 5.006864e-02
14, 1.267106e+01, 2.420000e+17, 5.599501e-02
15, 1.288715e+01, 2.420000e+17, 6.182398e-02
16, 1.310692e+01, 2.420000e+17, 6.529863e-02
17, 1.333043e+01, 2.420000e+17, 6.320680e-02
18, 1.355776e+01, 2.420000e+17, 5.764201e-02
19, 1.378897e+01, 2.420000e+17, 6.321910e-02
20, 1.402412e+01, 2.420000e+17, 6.880783e-02
21, 1.426328e+01, 2.420000e+17, 7.394981e-02
22, 1.450652e+01, 2.420000e+17, 7.880921e-02
23, 1.475391e+01, 2.420000e+17, 8.301824e-02
24, 1.500551e+01, 2.420000e+17, 8.528410e-02
25, 1.526141e+01, 2.420000e+17, 7.370235e-02
26, 1.552167e+01, 2.420000e+17, 7.796063e-02
27, 1.578636e+01, 2.420000e+17, 8.222767e-02
28, 1.605558e+01, 2.420000e+17, 8.649034e-02
29, 1.632938e+01, 2.420000e+17, 9.071042e-02
30, 1.660785e+01, 2.420000e+17, 9.464911e-02
31, 1.689107e+01, 2.420000e+17, 9.766996e-02
32, 1.717912e+01, 2.420000e+17, 7.940376e-02
33, 1.747209e+01, 2.420000e+17, 8.261897e-02
34, 1.777005e+01, 2.420000e+17, 8.613363e-02
35, 1.807309e+01, 2.420000e+17, 9.011976e-02
36, 1.838130e+01, 2.420000e+17, 9.438613e-02
37, 1.869476e+01, 2.420000e+17, 9.914193e-02
38, 1.901357e+01, 2.420000e+17, 1.038621e-01
39, 1.933782e+01, 2.420000e+17, 8.160598e-02
40, 1.966760e+01, 2.420000e+17, 6.965196e-02
41, 2.000300e+01, 2.420000e+17, 7.271191e-02
42, 2.034412e+01, 2.420000e+17, 7.617014e-02
43, 2.069105e+01, 2.420000e+17, 8.012302e-02
44, 2.104391e+01, 2.420000e+17, 8.470778e-02
45, 2.140278e+01, 2.420000e+17, 8.658334e-02
46, 2.176777e+01, 2.420000e+17, 8.118123e-02
47, 2.213899e+01, 2.420000e+17, 7.403087e-02
48, 2.251653e+01, 2.420000e+17, 7.827582e-02
49, 2.290052e+01, 2.420000e+17, 8.370244e-02
50, 2.329105e+01, 2.420000e+17, 9.003572e-02
51, 2.368824e+01, 2.420000e+17, 9.636669e-02
52, 2.409221e+01, 2.420000e+17, 9.183584e-02
53, 2.450307e+01, 2.420000e+17, 8.240714e-02
54, 2.492093e+01, 2.420000e+17, 6.170240e-02
55, 2.534592e+01, 2.420000e+17, 6.555284e-02
56, 2.577815e+01, 2.420000e+17, 7.020126e-02
57, 2.621776e+01, 2.420000e+17, 7.601424e-02
58, 2.666486e+01, 2.420000e+17, 7.645045e-02
59, 2.711959e+01, 2.420000e+17, 7.522898e-02
60, 2.758207e+01, 2.420000e+17, 7.223164e-02
61, 2.805244e+01, 2.420000e+17, 5.985273e-02
62, 2.853084e+01, 2.420000e+17, 6.436304e-02
63, 2.901738e+01, 2.420000e+17, 6.994389e-02
64, 2.951223e+01, 2.420000e+17, 7.215982e-02
65, 3.001552e+01, 2.420000e+17, 7.288520e-02
66, 3.052739e+01, 2.420000e+17, 7.318094e-02
67, 3.104798e+01, 2.420000e+17, 7.241401e-02
68, 3.157746e+01, 2.420000e+17, 6.844991e-02
69, 3.211596e+01, 2.420000e+17, 6.872734e-02
70, 3.266365e+01, 2.420000e+17, 7.134430e-02
71, 3.322068e+01, 2.420000e+17, 7.144718e-02
72, 3.378721e+01, 2.420000e+17, 7.064578e-02
73, 3.436340e+01, 2.420000e+17, 7.013804e-02
74, 3.494941e+01, 2.420000e+17, 6.792535e-02
75, 3.554542e+01, 2.420000e+17, 6.268171e-02
76, 3.615159e+01, 2.420000e+17, 5.192915e-02
77, 3.676810e+01, 2.420000e+17, 5.357276e-02
78, 3.739513e+01, 2.420000e+17, 5.564008e-02
79, 3.803284e+01, 2.420000e+17, 5.791305e-02
80, 3.868143e+01, 2.420000e+17, 6.048371e-02
81, 3.934109e+01, 2.420000e+17, 6.422774e-02
82, 4.001199e+01, 2.420000e+17, 6.286797e-02
83, 4.069433e+01, 2.420000e+17, 5.708314e-02
84, 4.138831e+01, 2.420000e+17, 5.809864e-02
85, 4.209412e+01, 2.420000e+17, 5.910372e-02
86, 4.281197e+01, 2.420000e+17, 6.079050e-02
87, 4.354207e+01, 2.420000e+17, 6.239612e-02
88, 4.428461e+01, 2.420000e+17, 6.038213e-02
89, 4.503981e+01, 2.420000e+17, 5.658443e-02
90, 4.580790e+01, 2.420000e+17, 4.402534e-02
91, 4.658908e+01, 2.420000e+17, 4.553442e-02
92, 4.738359e+01, 2.420000e+17, 4.791366e-02
93, 4.819164e+01, 2.420000e+17, 5.020893e-02
94, 4.901348e+01, 2.420000e+17, 5.061406e-02
95, 4.984933e+01, 2.420000e+17, 5.057882e-02
96, 5.069943e+01, 2.420000e+17, 4.934475e-02
97, 5.156403e+01, 2.420000e+17, 4.670676e-02
98, 5.244338e+01, 2.420000e+17, 4.549661e-02
99, 5.333772e+01, 2.420000e+17, 4.817525e-02
100, 5.424731e+01, 2.420000e+17, 4.848347e-02
101, 5.517241e+01, 2.420000e+17, 4.906887e-02
102, 5.611329e+01, 2.420000e+17, 4.888209e-02
103, 5.707022e+01, 2.420000e+17, 4.814097e-02
104, 5.804346e+01, 2.420000e+17, 4.638855e-02
105, 5.903331e+01, 2.420000e+17, 4.251246e-02
106, 6.004003e+01, 2.420000e+17, 4.280329e-02
107, 6.106392e+01, 2.420000e+17, 4.336892e-02
108, 6.210527e+01, 2.420000e+17, 4.376969e-02
109, 6.316438e+01, 2.420000e+17, 4.444715e-02
110, 6.424155e+01, 2.420000e+17, 4.505615e-02
111, 6.533709e+01, 2.420000e+17, 4.276985e-02
112, 6.645132e+01, 2.420000e+17, 3.475861e-02
113, 6.758454e+01, 2.420000e+17, 3.567739e-02
114, 6.873709e+01, 2.420000e+17, 3.647151e-02
115, 6.990930e+01, 2.420000e+17, 3.775343e-02
116, 7.110149e+01, 2.420000e+17, 3.867056e-02
117, 7.231402e+01, 2.420000e+17, 3.889469e-02
118, 7.354722e+01, 2.420000e+17, 3.786211e-02
119, 7.480146e+01, 2.420000e+17, 3.466463e-02
120, 7.607708e+01, 2.420000e+17, 3.492505e-02
121, 7.737446e+01, 2.420000e+17, 3.587555e-02
122, 7.869396e+01, 2.420000e+17, 3.688427e-02
123, 8.003596e+01, 2.420000e+17, 3.648584e-02
124, 8.140085e+01, 2.420000e+17, 3.548303e-02
125, 8.278902e+01, 2.420000e+17, 3.467520e-02
126, 8.420086e+01, 2.420000e+17, 3.139566e-02
127, 8.563678e+01, 2.420000e+17, 2.928064e-02
128, 8.709718e+01, 2.420000e+17, 2.986938e-02
129, 8.858249e+01, 2.420000e+17, 3.050917e-02
130, 9.009313e+01, 2.420000e+17, 3.002275e-02
131, 9.162953e+01, 2.420000e+17, 3.031154e-02
132, 9.319213e+01, 2.420000e+17, 3.028646e-02
133, 9.478137e+01, 2.420000e+17, 2.896821e-02
134, 9.639772e+01, 2.420000e+17, 2.601790e-02
135, 9.804164e+01, 2.420000e+17, 2.681632e-02
136, 9.971359e+01, 2.420000e+17, 2.687439e-02
137, 1.014141e+02, 2.420000e+17, 2.725854e-02
138, 1.031435e+02, 2.420000e+17, 2.825589e-02
139, 1.049025e+02, 2.420000e+17, 2.811190e-02
140, 1.066914e+02, 2.420000e+17, 2.700199e-02
141, 1.085109e+02, 2.420000e+17, 2.383351e-02
142, 1.103614e+02, 2.420000e+17, 2.444613e-02
143, 1.122434e+02, 2.420000e+17, 2.453283e-02
144, 1.141575e+02, 2.420000e+17, 2.521274e-02
145, 1.161043e+02, 2.420000e+17, 2.495924e-02
146, 1.180843e+02, 2.420000e+17, 2.415850e-02
147, 1.200980e+02, 2.420000e+17, 2.331996e-02
148, 1.221461e+02, 2.420000e+17, 1.994030e-02
149, 1.242291e+02, 2.420000e+17, 1.926924e-02
150, 1.263477e+02, 2.420000e+17, 2.009324e-02
151, 1.285024e+02, 2.420000e+17, 2.017898e-02
152, 1.306938e+02, 2.420000e+17, 1.991228e-02
153, 1.329225e+02, 2.420000e+17, 2.007515e-02
154, 1.351893e+02, 2.420000e+17, 2.028324e-02
155, 1.374948e+02, 2.420000e+17, 1.988938e-02
156, 1.398395e+02, 2.420000e+17, 1.925303e-02
157, 1.422243e+02, 2.420000e+17, 1.932341e-02
158, 1.446497e+02, 2.420000e+17, 1.905206e-02
159, 1.471165e+02, 2.420000e+17, 1.854812e-02
160, 1.496253e+02, 2.420000e+17, 1.861317e-02
161, 1.521770e+02, 2.420000e+17, 1.816242e-02
162, 1.547721e+02, 2.420000e+17, 1.699874e-02
163, 1.574115e+02, 2.420000e+17, 1.426383e-02
164, 1.600959e+02, 2.420000e+17, 1.444090e-02
165, 1.628261e+02, 2.420000e+17, 1.485940e-02
166, 1.656029e+02, 2.420000e+17, 1.533588e-02
167, 1.684270e+02, 2.420000e+17, 1.555366e-02
168, 1.712992e+02, 2.420000e+17, 1.506155e-02
169, 1.742205e+02, 2.420000e+17, 1.461489e-02
170, 1.771915e+02, 2.420000e+17, 1.274922e-02
171, 1.802132e+02, 2.420000e+17, 1.308326e-02
172, 1.832865e+02, 2.420000e+17, 1.351828e-02
173, 1.864122e+02, 2.420000e+17, 1.374857e-02
174, 1.895912e+02, 2.420000e+17, 1.351632e-02
175, 1.928243e+02, 2.420000e+17, 1.346428e-02
176, 1.961127e+02, 2.420000e+17, 1.311771e-02
177, 1.994571e+02, 2.420000e+17, 1.224383e-02
178, 2.028585e+02, 2.420000e+17, 1.194813e-02
179, 2.063179e+02, 2.420000e+17, 1.195045e-02
180, 2.098364e+02, 2.420000e+17, 1.200476e-02
181, 2.134148e+02, 2.420000e+17, 1.193713e-02
182, 2.170543e+02, 2.420000e+17, 1.177983e-02
183, 2.207558e+02, 2.420000e+17, 1.160741e-02
184, 2.245204e+02, 2.420000e+17, 1.057544e-02
185, 2.283493e+02, 2.420000e+17, 9.163848e-03
186, 2.322434e+02, 2.420000e+17, 9.325220e-03
187, 2.362040e+02, 2.420000e+17, 9.353928e-03
188, 2.402321e+02, 2.420000e+17, 9.917569e-03
189, 2.443289e+02, 2.420000e+17, 9.644562e-03
190, 2.484955e+02, 2.420000e+17, 9.707120e-03
191, 2.527332e+02, 2.420000e+17, 9.439645e-03
192, 2.570432e+02, 2.420000e+17, 8.551819e-03
193, 2.614267e+02, 2.420000e+17, 8.689868e-03
194, 2.658849e+02, 2.420000e+17, 8.892490e-03
195, 2.704192e+02, 2.420000e+17, 8.944853e-03
196, 2.750308e+02, 2.420000e+17, 8.967846e-03
197, 2.797210e+02, 2.420000e+17, 8.596433e-03
198, 2.844912e+02, 2.420000e+17, 8.054066e-03
199, 2.893428e+02, 2.420000e+17, 6.789393e-03
200, 2.942771e+02, 2.420000e+17, 6.921790e-03
201, 2.992955e+02, 2.420000e+17, 7.093839e-03
202, 3.043995e+02, 2.420000e+17, 7.121082e-03
203, 3.095906e+02, 2.420000e+17, 7.184038e-03
204, 3.148702e+02, 2.420000e+17, 6.964305e-03
205, 3.202398e+02, 2.420000e+17, 6.836584e-03
206, 3.257010e+02, 2.420000e+17, 6.504097e-03
207, 3.312553e+02, 2.420000e+17, 6.197116e-03
208, 3.369044e+02, 2.420000e+17, 6.328495e-03
209, 3.426498e+02, 2.420000e+17, 6.270947e-03
210, 3.484931e+02, 2.420000e+17, 6.216589e-03
211, 3.544361e+02, 2.420000e+17, 6.207002e-03
212, 3.604805e+02, 2.420000e+17, 5.984234e-03
213, 3.666279e+02, 2.420000e+17, 5.698081e-03
214, 3.728802e+02, 2.420000e+17, 5.595801e-03
215, 3.792391e+02, 2.420000e+17, 5.452553e-03
216, 3.857065e+02, 2.420000e+17, 5.461039e-03
217, 3.922841e+02, 2.420000e+17, 5.357042e-03
218, 3.989739e+02, 2.420000e+17, 5.130783e-03
219, 4.057778e+02, 2.420000e+17, 5.038473e-03
220, 4.126977e+02, 2.420000e+17, 4.635369e-03
221, 4.197356e+02, 2.420000e+17, 4.574702e-03
222, 4.268936e+02, 2.420000e+17, 4.548192e-03
223, 4.341736e+02, 2.420000e+17, 4.500104e-03
224, 4.415777e+02, 2.420000e+17, 4.479250e-03
225, 4.491082e+02, 2.420000e+17, 4.565535e-03
226, 4.567670e+02, 2.420000e+17, 4.271939e-03
227, 4.645565e+02, 2.420000e+17, 4.259234e-03
228, 4.724788e+02, 2.420000e+17, 4.221206e-03
229, 4.805362e+02, 2.420000e+17, 4.093720e-03
230, 4.887310e+02, 2.420000e+17, 3.947691e-03
231, 4.970655e+02, 2.420000e+17, 3.770723e-03
232, 5.055422e+02, 2.420000e+17, 3.661904e-03
233, 5.141634e+02, 2.420000e+17, 3.445344e-03
234, 5.229317e+02, 2.420000e+17, 3.472576e-03
235, 5.318495e+02, 2.420000e+17, 3.669203e-03
236, 5.409194e+02, 2.420000e+17, 3.616242e-03
237, 5.501439e+02, 2.420000e+17, 3.472412e-03
238, 5.595258e+02, 2.420000e+17, 3.320882e-03
239, 5.690676e+02, 2.420000e+17, 3.374849e-03
240, 5.787722e+02, 2.420000e+17, 3.248945e-03
241, 5.886423e+02, 2.420000e+17, 3.169339e-03
242, 5.986807e+02, 2.420000e+17, 3.171341e-03
243, 6.088902e+02, 2.420000e+17, 2.886570e-03
244, 6.192739e+02, 2.420000e+17, 2.967007e-03
245, 6.298347e+02, 2.420000e+17, 2.998833e-03
246, 6.405756e+02, 2.420000e+17, 2.767277e-03
247, 6.514996e+02, 2.420000e+17, 2.627233e-03
248, 6.626099e+02, 2.420000e+17, 2.593774e-03
249, 6.739097e+02, 2.420000e+17, 2.604493e-03
250, 6.854022e+02, 2.420000e+17, 2.727952e-03
251, 6.970907e+02, 2.420000e+17, 2.591117e-03
252, 7.089785e+02, 2.420000e+17, 2.500072e-03
253, 7.210690e+02, 2.420000e+17, 2.463188e-03
254, 7.333657e+02, 2.420000e+17, 2.473494e-03
255, 7.458722e+02, 2.420000e+17, 2.421201e-03
256, 7.585919e+02, 2.420000e+17, 2.216803e-03
257, 7.715285e+02, 2.420000e+17, 2.133353e-03
258, 7.846857e+02, 2.420000e+17, 2.143751e-03
259, 7.980673e+02, 2.420000e+17, 2.178290e-03
260, 8.116771e+02, 2.420000e+17, 2.222585e-03
261, 8.255190e+02, 2.420000e+17, 2.100045e-03
262, 8.395970e+02, 2.420000e+17, 2.088780e-03
263, 8.539150e+02, 2.420000e+17, 2.015663e-03
264, 8.684772e+02, 2.420000e+17, 1.966309e-03
265, 8.832878e+02, 2.420000e+17, 1.958370e-03
266, 8.983509e+02, 2.420000e+17, 1.897276e-03
267, 9.136709e+02, 2.420000e+17, 1.784212e-03
268, 9.292521e+02, 2.420000e+17, 1.814111e-03
269, 9.450991e+02, 2.420000e+17, 1.826063e-03
270, 9.612163e+02, 2.420000e+17, 1.757314e-03
271, 9.776084e+02, 2.420000e+17, 1.751827e-03
272, 9.942800e+02, 2.420000e+17, 1.595015e-03
273, 1.011236e+03, 2.420000e+17, 1.664413e-03
274, 1.028481e+03, 2.420000e+17, 1.682967e-03
275, 1.046020e+03, 2.420000e+17, 1.647455e-03
276, 1.063858e+03, 2.420000e+17, 1.678249e-03
277, 1.082001e+03, 2.420000e+17, 1.557506e-03
278, 1.100453e+03, 2.420000e+17, 1.496822e-03
279, 1.119219e+03, 2.420000e+17, 1.507639e-03
280, 1.138306e+03, 2.420000e+17, 1.439314e-03
281, 1.157718e+03, 2.420000e+17, 1.390040e-03
282, 1.177461e+03, 2.420000e+17, 1.351388e-03
283, 1.197541e+03, 2.420000e+17, 1.301434e-03
284, 1.217963e+03, 2.420000e+17, 1.323691e-03
285, 1.238733e+03, 2.420000e+17, 1.356847e-03
286, 1.259858e+03, 2.420000e+17, 1.362762e-03
287, 1.281343e+03, 2.420000e+17, 1.262832e-03
288, 1.303194e+03, 2.420000e+17, 1.282900e-03
289, 1.325418e+03, 2.420000e+17, 1.240071e-03
290, 1.348021e+03, 2.420000e+17, 1.198105e-03
291, 1.371010e+03, 2.420000e+17, 1.251037e-03
292, 1.394390e+03, 2.420000e+17, 1.176825e-03
293, 1.418169e+03, 2.420000e+17, 1.138872e-03
294, 1.442354e+03, 2.420000e+17, 1.131412e-03
295, 1.466951e+03, 2.420000e+17, 1.127233e-03
296, 1.491968e+03, 2.420000e+17, 1.083479e-03
297, 1.517411e+03, 2.420000e+17, 1.056602e-03
298, 1.543288e+03, 2.420000e+17, 1.033793e-03
299, 1.569607e+03, 2.420000e+17, 1.011296e-03
300, 1.596374e+03, 2.420000e+17, 1.046746e-03
301, 1.623597e+03, 2.420000e+17, 1.041259e-03
302, 1.651285e+03, 2.420000e+17, 9.863977e-04
303, 1.679446e+03, 2.420000e+17, 1.014466e-03
304, 1.708086e+03, 2.420000e+17, 9.389649e-04
305, 1.737215e+03, 2.420000e+17, 9.641689e-04
306, 1.766840e+03, 2.420000e+17, 9.187762e-04
307, 1.796971e+03, 2.420000e+17, 8.687685e-04
308, 1.827616e+03, 2.420000e+17, 8.685890e-04
309, 1.858783e+03, 2.420000e+17, 8.345329e-04
310, 1.890481e+03, 2.420000e+17, 8.803139e-04
311, 1.922721e+03, 2.420000e+17, 8.715049e-04
312, 1.955510e+03, 2.420000e+17, 8.394458e-04
313, 1.988858e+03, 2.420000e+17, 8.559207e-04
314, 2.022775e+03, 2.420000e+17, 7.968883e-04
315, 2.057270e+03, 2.420000e+17, 8.023731e-04
316, 2.092354e+03, 2.420000e+17, 7.983656e-04
317, 2.128036e+03, 2.420000e+17, 7.656695e-04
318, 2.164326e+03, 2.420000e+17, 7.579298e-04
319, 2.201235e+03, 2.420000e+17, 7.170705e-04
320, 2.238774e+03, 2.420000e+17, 6.978745e-04
321, 2.276953e+03, 2.420000e+17, 7.229702e-04
322, 2.315783e+03, 2.420000e+17, 6.938163e-04
323, 2.355275e+03, 2.420000e+17, 6.814183e-04
324, 2.395440e+03, 2.420000e+17, 6.603013e-04
325, 2.436291e+03, 2.420000e+17, 6.372756e-04
326, 2.477838e+03, 2.420000e+17, 6.514436e-04
327, 2.520094e+03, 2.420000e+17, 6.428239e-04
328, 2.563070e+03, 2.420000e+17, 6.517925e-04
329, 2.606779e+03, 2.420000e+17, 6.206581e-04
330, 2.651234e+03, 2.420000e+17, 6.168678e-04
331, 2.696447e+03, 2.420000e+17, 5.980080e-04
332, 2.742430e+03, 2.420000e+17, 5.912260e-04
333, 2.789198e+03, 2.420000e+17, 5.800128e-04
334, 2.836764e+03, 2.420000e+17, 5.875117e-04
335, 2.885140e+03, 2.420000e+17, 5.704008e-04
336, 2.934342e+03, 2.420000e+17, 5.643306e-04
337, 2.984383e+03, 2.420000e+17, 5.641714e-04
338, 3.035277e+03, 2.420000e+17, 5.488759e-04
339, 3.087039e+03, 2.420000e+17, 5.259390e-04
340, 3.139683e+03, 2.420000e+17, 5.248294e-04
341, 3.193226e+03, 2.420000e+17, 5.067269e-04
342, 3.247682e+03, 2.420000e+17, 5.070563e-04
343, 3.303066e+03, 2.420000e+17, 4.971998e-04
344, 3.359394e+03, 2.420000e+17, 4.765230e-04
345, 3.416684e+03, 2.420000e+17, 4.640494e-04
346, 3.474950e+03, 2.420000e+17, 4.532673e-04
347, 3.534210e+03, 2.420000e+17, 4.463244e-04
348, 3.594480e+03, 2.420000e+17, 4.533223e-04
349, 3.655779e+03, 2.420000e+17, 4.547441e-04
350, 3.718122e+03, 2.420000e+17, 4.469558e-04
351, 3.781529e+03, 2.420000e+17, 4.442642e-04
352, 3.846017e+03, 2.420000e+17, 4.261858e-04
353, 3.911605e+03, 2.420000e+17, 4.340525e-04
354, 3.978312e+03, 2.420000e+17, 4.221985e-04
355, 4.046156e+03, 2.420000e+17, 4.091480e-04
356, 4.115157e+03, 2.420000e+17, 4.013421e-04
357, 4.185334e+03, 2.420000e+17, 3.858334e-04
358, 4.256709e+03, 2.420000e+17, 3.756521e-04
359, 4.329300e+03, 2.420000e+17, 3.650652e-04
360, 4.403130e+03, 2.420000e+17, 3.614431e-04
361, 4.478219e+03, 2.420000e+17, 3.644195e-04
362, 4.554588e+03, 2.420000e+17, 3.575527e-04
363, 4.632259e+03, 2.420000e+17, 3.484012e-04
364, 4.711255e+03, 2.420000e+17, 3.507648e-04
365, 4.791598e+03, 2.420000e+17, 3.471020e-04
366, 4.873312e+03, 2.420000e+17, 3.385860e-04
367, 4.956419e+03, 2.420000e+17, 3.347710e-04
368, 5.040943e+03, 2.420000e+17, 3.287938e-04
369, 5.126908e+03, 2.420000e+17, 3.191230e-04
370, 5.214340e+03, 2.420000e+17, 3.124581e-04
371, 5.303262e+03, 2.420000e+17, 3.065938e-04
372, 5.393701e+03, 2.420000e+17, 3.010693e-04
373, 5.485683e+03, 2.420000e+17, 2.943688e-04
374, 5.579232e+03, 2.420000e+17, 2.952809e-04
375, 5.674378e+03, 2.420000e+17, 2.936659e-04
376, 5.771145e+03, 2.420000e+17, 2.838096e-04
377, 5.869563e+03, 2.420000e+17, 2.772194e-04
378, 5.969660e+03, 2.420000e+17, 2.722557e-04
379, 6.071463e+03, 2.420000e+17, 2.686690e-04
380, 6.175003e+03, 2.420000e+17, 2.631419e-04
381, 6.280308e+03, 2.420000e+17, 2.693961e-04
382, 6.387409e+03, 2.420000e+17, 2.602004e-04
383, 6.496336e+03, 2.420000e+17, 2.521316e-04
384, 6.607121e+03, 2.420000e+17, 2.481567e-04
385, 6.719796e+03, 2.420000e+17, 2.421735e-04
386, 6.834391e+03, 2.420000e+17, 2.396529e-04
387, 6.950941e+03, 2.420000e+17, 2.329366e-04
388, 7.069479e+03, 2.420000e+17, 2.270692e-04
389, 7.190038e+03, 2.420000e+17, 2.258393e-04
390, 7.312653e+03, 2.420000e+17, 2.257239e-04
391, 7.437359e+03, 2.420000e+17, 2.179109e-04
392, 7.564192e+03, 2.420000e+17, 2.201931e-04
393, 7.693187e+03, 2.420000e+17, 2.174108e-04
394, 7.824383e+03, 2.420000e+17, 2.093373e-04
395, 7.957816e+03, 2.420000e+17, 2.044104e-04
396, 8.093524e+03, 2.420000e+17, 1.975232e-04
397, 8.231547e+03, 2.420000e+17, 1.931327e-04
398, 8.371923e+03, 2.420000e+17, 1.925451e-04
399, 8.514693e+03, 2.420000e+17, 1.944789e-04
400, 8.659898e+03, 2.420000e+17, 1.895782e-04
401, 8.807579e+03, 2.420000e+17, 1.856969e-04
402, 8.957779e+03, 2.420000e+17, 1.776282e-04
403, 9.110540e+03, 2.420000e+17, 1.764423e-04
404, 9.265907e+03, 2.420000e+17, 1.753260e-04
405, 9.423922e+03, 2.420000e+17, 1.678032e-04
406, 9.584633e+03, 2.420000e+17, 1.639244e-04
407, 9.748084e+03, 2.420000e+17, 1.644655e-04
408, 9.914323e+03, 2.420000e+17, 1.612402e-04
409, 1.008340e+04, 2.420000e+17, 1.630233e-04
410, 1.025535e+04, 2.420000e+17, 1.583375e-04
411, 1.043024e+04, 2.420000e+17, 1.535362e-04
412, 1.060811e+04, 2.420000e+17, 1.514596e-04
413, 1.078902e+04, 2.420000e+17, 1.509403e-04
414, 1.097301e+04, 2.420000e+17, 1.460202e-04
415, 1.116014e+04, 2.420000e+17, 1.424325e-04
416, 1.135046e+04, 2.420000e+17, 1.375208e-04
417, 1.154402e+04, 2.420000e+17, 1.378125e-04
418, 1.174089e+04, 2.420000e+17, 1.378242e-04
419, 1.194111e+04, 2.420000e+17, 1.344198e-04
420, 1.214475e+04, 2.420000e+17, 1.297376e-04
421, 1.235186e+04, 2.420000e+17, 1.286540e-04
422, 1.256250e+04, 2.420000e+17, 1.281648e-04
423, 1.277673e+04, 2.420000e+17, 1.255414e-04
424, 1.299462e+04, 2.420000e+17, 1.221932e-04
425, 1.321622e+04, 2.420000e+17, 1.166106e-04
426, 1.344160e+04, 2.420000e+17, 1.135698e-04
427, 1.367083e+04, 2.420000e+17, 1.148458e-04
428, 1.390397e+04, 2.420000e+17, 1.131512e-04
429, 1.414108e+04, 2.420000e+17, 1.106026e-04
430, 1.438223e+04, 2.420000e+17, 1.080114e-04
431, 1.462750e+04, 2.420000e+17, 1.080063e-04
432, 1.487695e+04, 2.420000e+17, 1.044009e-04
433, 1.513065e+04, 2.420000e+17, 1.023425e-04
434, 1.538868e+04, 2.420000e+17, 1.000302e-04
435, 1.565111e+04, 2.420000e+17, 9.731566e-05
436, 1.591802e+04, 2.420000e+17, 9.532293e-05
437, 1.618947e+04, 2.420000e+17, 9.505246e-05
438, 1.646556e+04, 2.420000e+17, 9.377130e-05
439, 1.674635e+04, 2.420000e+17, 9.081417e-05
440, 1.703194e+04, 2.420000e+17, 9.089104e-05
441, 1.732239e+04, 2.420000e+17, 8.963372e-05
442, 1.761780e+04, 2.420000e+17, 8.675295e-05
443, 1.791824e+04, 2.420000e+17, 8.488320e-05
444, 1.822381e+04, 2.420000e+17, 8.336852e-05
445, 1.853459e+04, 2.420000e+17, 8.060400e-05
446, 1.885067e+04, 2.420000e+17, 7.859523e-05
447, 1.917214e+04, 2.420000e+17, 7.780783e-05
448, 1.949909e+04, 2.420000e+17, 7.654567e-05
449, 1.983162e+04, 2.420000e+17, 7.500423e-05
450, 2.016981e+04, 2.420000e+17, 7.452376e-05
451, 2.051378e+04, 2.420000e+17, 7.328009e-05
452, 2.086361e+04, 2.420000e+17, 7.136611e-05
453, 2.121941e+04, 2.420000e+17, 7.038812e-05
454, 2.158127e+04, 2.420000e+17, 6.924494e-05
455, 2.194931e+04, 2.420000e+17, 6.676555e-05
456, 2.232362e+04, 2.420000e+17, 6.674208e-05
457, 2.270431e+04, 2.420000e+17, 6.640773e-05
458, 2.309150e+04, 2.420000e+17, 6.373563e-05
459, 2.348529e+04, 2.420000e+17, 6.240388e-05
460, 2.388580e+04, 2.420000e+17, 6.190529e-05
461, 2.429313e+04, 2.420000e+17, 5.807242e-05
462, 2.470741e+04, 2.420000e+17, 5.678429e-05
463, 2.512876e+04, 2.420000e+17, 5.732029e-05
464, 2.555729e+04, 2.420000e+17, 5.578307e-05
465, 2.599313e+04, 2.420000e+17, 5.391202e-05
466, 2.643641e+04, 2.420000e+17, 5.391299e-05
467, 2.688724e+04, 2.420000e+17, 5.391966e-05
468, 2.734576e+04, 2.420000e+17, 5.110536e-05
469, 2.781210e+04, 2.420000e+17, 5.156014e-05
470, 2.828639e+04, 2.420000e+17, 5.061641e-05
471, 2.876877e+04, 2.420000e+17, 4.824148e-05
472, 2.925938e+04, 2.420000e+17, 4.845414e-05
473, 2.975835e+04, 2.420000e+17, 4.740883e-05
474, 3.026583e+04, 2.420000e+17, 4.526037e-05
475, 3.078197e+04, 2.420000e+17, 4.523314e-05
476, 3.130691e+04, 2.420000e+17, 4.392056e-05
477, 3.184080e+04, 2.420000e+17, 4.352640e-05
478, 3.238380e+04, 2.420000e+17, 4.416247e-05
479, 3.293605e+04, 2.420000e+17, 4.143469e-05
480, 3.349773e+04, 2.420000e+17, 4.090392e-05
481, 3.406898e+04, 2.420000e+17, 3.981121e-05
482, 3.464997e+04, 2.420000e+17, 3.805506e-05
483, 3.524088e+04, 2.420000e+17, 3.889664e-05
484, 3.584185e+04, 2.420000e+17, 3.755502e-05
485, 3.645308e+04, 2.420000e+17, 3.524901e-05
486, 3.707473e+04, 2.420000e+17, 3.664875e-05
487, 3.770699e+04, 2.420000e+17, 3.532222e-05
488, 3.835002e+04, 2.420000e+17, 3.379163e-05
489, 3.900402e+04, 2.420000e+17, 3.560491e-05
490, 3.966917e+04, 2.420000e+17, 3.308225e-05
491, 4.034567e+04, 2.420000e+17, 3.235693e-05
492, 4.103370e+04, 2.420000e+17, 3.238897e-05
493, 4.173347e+04, 2.420000e+17, 3.037788e-05
494, 4.244517e+04, 2.420000e+17, 2.997920e-05
495, 4.316901e+04, 2.420000e+17, 3.084205e-05
496, 4.390519e+04, 2.420000e+17, 2.773961e-05
497, 4.465393e+04, 2.420000e+17, 2.808085e-05
498, 4.541543e+04, 2.420000e+17, 2.927850e-05
499, 4.618992e+04, 2.420000e+17, 2.669636e-05
500, 4.697762e+04, 2.420000e+17, 2.687110e-05
501, 4.777875e+04, 2.420000e+17, 2.694751e-05
502, 4.859354e+04, 2.420000e+17, 2.451402e-05
503, 4.942223e+04, 2.420000e+17, 2.534995e-05
504, 5.026505e+04, 2.420000e+17, 2.415898e-05
505, 5.112224e+04, 2.420000e+17, 2.253469e-05
506, 5.199405e+04, 2.420000e+17, 2.296299e-05
507, 5.288073e+04, 2.420000e+17, 2.272906e-05
508, 5.378253e+04, 2.420000e+17, 2.201043e-05
509, 5.469971e+04, 2.420000e+17, 2.180818e-05
510, 5.563253e+04, 2.420000e+17, 2.122236e-05
511, 5.658126e+04, 2.420000e+17, 2.080999e-05
512, 5.754616e+04, 2.420000e+17, 2.042909e-05
513, 5.852752e+04, 2.420000e+17, 2.023652e-05
514, 5.952562e+04, 2.420000e+17, 1.940160e-05
515, 6.054074e+04, 2.420000e+17, 1.861267e-05
516, 6.157317e+04, 2.420000e+17, 1.894358e-05
517, 6.262320e+04, 2.420000e+17, 1.840367e-05
518, 6.369115e+04, 2.420000e+17, 1.833713e-05
519, 6.477730e+04, 2.420000e+17, 1.728792e-05
520, 6.588198e+04, 2.420000e+17, 1.800768e-05
521, 6.700549e+04, 2.420000e+17, 1.695975e-05
522, 6.814817e+04, 2.420000e+17, 1.641309e-05
523, 6.931033e+04, 2.420000e+17, 1.637545e-05
524, 7.049231e+04, 2.420000e+17, 1.552275e-05
525, 7.169445e+04, 2.420000e+17, 1.521804e-05
526, 7.291709e+04, 2.420000e+17, 1.453101e-05
527, 7.416058e+04, 2.420000e+17, 1.398373e-05
528, 7.542527e+04, 2.420000e+17, 1.382426e-05
529, 7.671153e+04, 2.420000e+17, 1.361233e-05
530, 7.801973e+04, 2.420000e+17, 1.322159e-05
531, 7.935024e+04, 2.420000e+17, 1.312131e-05
532, 8.070343e+04, 2.420000e+17, 1.312737e-05
533, 8.207971e+04, 2.420000e+17, 1.288071e-05
534, 8.347945e+04, 2.420000e+17, 1.230875e-05
535, 8.490306e+04, 2.420000e+17, 1.125227e-05
536, 8.635095e+04, 2.420000e+17, 1.134370e-05
537, 8.782354e+04, 2.420000e+17, 1.188005e-05
538, 8.932123e+04, 2.420000e+17, 1.095181e-05
539, 9.084447e+04, 2.420000e+17, 1.095375e-05
540, 9.239368e+04, 2.420000e+17, 1.082033e-05
541, 9.396931e+04, 2.420000e+17, 1.109973e-05
542, 9.557181e+04, 2.420000e+17, 1.072610e-05
543, 9.720164e+04, 2.420000e+17, 1.025931e-05
544, 9.885927e+04, 2.420000e+17, 9.874124e-06
545, 1.005452e+05, 2.420000e+17, 9.888905e-06
546, 1.022598e+05, 2.420000e+17, 9.096551e-06
547, 1.040037e+05, 2.420000e+17, 8.898483e-06
548, 1.057773e+05, 2.420000e+17, 8.614898e-06
549, 1.075812e+05, 2.420000e+17, 8.390763e-06
550, 1.094158e+05, 2.420000e+17, 7.985983e-06
551, 1.112817e+05, 2.420000e+17, 8.150237e-06
552, 1.131795e+05, 2.420000e+17, 8.169346e-06
553, 1.151096e+05, 2.420000e+17, 7.766487e-06
554, 1.170726e+05, 2.420000e+17, 7.386000e-06
555, 1.190691e+05, 2.420000e+17, 7.732929e-06
556, 1.210996e+05, 2.420000e+17, 7.235787e-06
557, 1.231648e+05, 2.420000e+17, 7.260217e-06
558, 1.252652e+05, 2.420000e+17, 6.439101e-06
559, 1.274014e+05, 2.420000e+17, 6.818791e-06
560, 1.295740e+05, 2.420000e+17, 6.602458e-06
561, 1.317837e+05, 2.420000e+17, 6.047503e-06
562, 1.340311e+05, 2.420000e+17, 6.105067e-06
563, 1.363168e+05, 2.420000e+17, 6.074694e-06
564, 1.386414e+05, 2.420000e+17, 6.009259e-06
565, 1.410057e+05, 2.420000e+17, 5.370745e-06
566, 1.434104e+05, 2.420000e+17, 5.768164e-06
567, 1.458560e+05, 2.420000e+17, 5.609678e-06
568, 1.483434e+05, 2.420000e+17, 5.162355e-06
569, 1.508731e+05, 2.420000e+17, 5.335266e-06
570, 1.534461e+05, 2.420000e+17, 5.114516e-06
571, 1.560628e+05, 2.420000e+17, 4.905001e-06
572, 1.587243e+05, 2.420000e+17, 5.029560e-06
573, 1.614310e+05, 2.420000e+17, 4.972271e-06
574, 1.641840e+05, 2.420000e+17, 4.846221e-06
575, 1.669839e+05, 2.420000e+17, 4.769351e-06
576, 1.698316e+05, 2.420000e+17, 4.364202e-06
577, 1.727278e+05, 2.420000e+17, 4.489811e-06
578, 1.756734e+05, 2.420000e+17, 4.021665e-06
579, 1.786692e+05, 2.420000e+17, 4.001408e-06
580, 1.817162e+05, 2.420000e+17, 4.134350e-06
581, 1.848150e+05, 2.420000e+17, 3.704292e-06
582, 1.879668e+05, 2.420000e+17, 3.711090e-06
583, 1.911723e+05, 2.420000e+17, 3.752494e-06
584, 1.944324e+05, 2.420000e+17, 3.336780e-06
585, 1.977482e+05, 2.420000e+17, 3.306041e-06
586, 2.011205e+05, 2.420000e+17, 3.389781e-06
587, 2.045503e+05, 2.420000e+17, 3.340758e-06
588, 2.080385e+05, 2.420000e+17, 3.064236e-06
589, 2.115863e+05, 2.420000e+17, 2.938490e-06
590, 2.151946e+05, 2.420000e+17, 3.095916e-06
591, 2.188644e+05, 2.420000e+17, 2.735091e-06
592, 2.225968e+05, 2.420000e+17, 2.863984e-06
593, 2.263929e+05, 2.420000e+17, 3.052692e-06
594, 2.302536e+05, 2.420000e+17, 2.658022e-06
595, 2.341803e+05, 2.420000e+17, 2.774262e-06
596, 2.381738e+05, 2.420000e+17, 2.755889e-06
597, 2.422355e+05, 2.420000e+17, 2.591213e-06
598, 2.463665e+05, 2.420000e+17, 2.358068e-06
599, 2.505679e+05, 2.420000e+17, 2.488300e-06
600, 2.548409e+05, 2.420000e+17, 2.362532e-06
601, 2.591869e+05, 2.420000e+17, 2.355541e-06
602, 2.636069e+05, 2.420000e+17, 2.038808e-06
603, 2.681023e+05, 2.420000e+17, 2.256429e-06
604, 2.726744e+05, 2.420000e+17, 2.133357e-06
605, 2.773244e+05, 2.420000e+17, 2.130196e-06
606, 2.820537e+05, 2.420000e+17, 2.034591e-06
607, 2.868637e+05, 2.420000e+17, 1.827591e-06
608, 2.917558e+05, 2.420000e+17, 1.918605e-06
609, 2.967312e+05, 2.420000e+17, 1.786573e-06
610, 3.017915e+05, 2.420000e+17, 1.785355e-06
611, 3.069381e+05, 2.420000e+17, 1.813771e-06
612, 3.121724e+05, 2.420000e+17, 1.890512e-06
613, 3.174961e+05, 2.420000e+17, 1.732122e-06
614, 3.229105e+05, 2.420000e+17, 1.562098e-06
615, 3.284172e+05, 2.420000e+17, 1.511428e-06
616, 3.340179e+05, 2.420000e+17, 1.378342e-06
617, 3.397140e+05, 2.420000e+17, 1.315221e-06
618, 3.455073e+05, 2.420000e+17, 1.352967e-06
619, 3.513994e+05, 2.420000e+17, 1.357205e-06
620, 3.573920e+05, 2.420000e+17, 1.379132e-06
621, 3.634868e+05, 2.420000e+17, 1.323051e-06
622, 3.696855e+05, 2.420000e+17, 1.156688e-06
623, 3.759899e+05, 2.420000e+17, 1.155095e-06
624, 3.824018e+05, 2.420000e+17, 1.219710e-06
625, 3.889231e+05, 2.420000e+17, 1.132733e-06
626, 3.955556e+05, 2.420000e+17, 1.117408e-06
627, 4.023012e+05, 2.420000e+17, 1.195487e-06
628, 4.091618e+05, 2.420000e+17, 1.069982e-06
629, 4.161394e+05, 2.420000e+17, 1.064144e-06
630, 4.232360e+05, 2.420000e+17, 1.087514e-06
631, 4.304537e+05, 2.420000e+17, 9.659225e-07
632, 4.377944e+05, 2.420000e+17, 9.462883e-07
633, 4.452603e+05, 2.420000e+17, 9.760251e-07
634, 4.528535e+05, 2.420000e+17, 8.848790e-07
635, 4.605763e+05, 2.420000e+17, 9.595852e-07
636, 4.684307e+05, 2.420000e+17, 8.607830e-07
637, 4.764190e+05, 2.420000e+17, 8.197589e-07
638, 4.845436e+05, 2.420000e+17, 8.406652e-07
639, 4.928068e+05, 2.420000e+17, 8.251568e-07
640, 5.012108e+05, 2.420000e+17, 7.687110e-07
641, 5.097582e+05, 2.420000e+17, 7.818908e-07
642, 5.184514e+05, 2.420000e+17, 6.333894e-07
643, 5.272928e+05, 2.420000e+17, 6.712221e-07
644, 5.362849e+05, 2.420000e+17, 6.755425e-07
645, 5.454304e+05, 2.420000e+17, 6.084272e-07
646, 5.547319e+05, 2.420000e+17, 6.666396e-07
647, 5.641920e+05, 2.420000e+17, 5.774311e-07
648, 5.738134e+05, 2.420000e+17, 5.528795e-07
649, 5.835989e+05, 2.420000e+17, 5.979971e-07
650, 5.935513e+05, 2.420000e+17, 6.057973e-07
651, 6.036734e+05, 2.420000e+17, 5.241182e-07
652, 6.139682e+05, 2.420000e+17, 5.368664e-07
653, 6.244384e+05, 2.420000e+17, 5.029272e-07
654, 6.350873e+05, 2.420000e+17, 4.423118e-07
655, 6.459177e+05, 2.420000e+17, 4.559553e-07
656, 6.569328e+05, 2.420000e+17, 4.876241e-07
657, 6.681358e+05, 2.420000e+17, 4.025998e-07
658, 6.795298e+05, 2.420000e+17, 4.296208e-07
659, 6.911182e+05, 2.420000e+17, 3.831210e-07
660, 7.029041e+05, 2.420000e+17, 4.161259e-07
661, 7.148911e+05, 2.420000e+17, 4.396208e-07
662, 7.270825e+05, 2.420000e+17, 3.599349e-07
663, 7.394817e+05, 2.420000e+17, 4.104452e-07
664, 7.520924e+05, 2.420000e+17, 3.794154e-07
665, 7.649182e+05, 2.420000e+17, 3.645178e-07
666, 7.779627e+05, 2.420000e+17, 4.041130e-07
667, 7.912297e+05, 2.420000e+17, 3.506459e-07
668, 8.047229e+05, 2.420000e+17, 2.932397e-07
669, 8.184462e+05, 2.420000e+17, 2.562756e-07
670, 8.324035e+05, 2.420000e+17, 2.440789e-07
671, 8.465989e+05, 2.420000e+17, 2.731976e-07
672, 8.610363e+05, 2.420000e+17, 2.423454e-07
673, 8.757200e+05, 2.420000e+17, 2.432776e-07
674, 8.906541e+05, 2.420000e+17, 2.327099e-07
675, 9.058428e+05, 2.420000e+17, 2.244910e-07
676, 9.212905e+05, 2.420000e+17, 2.301688e-07
677, 9.370017e+05, 2.420000e+17, 2.182332e-07
678, 9.529809e+05, 2.420000e+17, 2.674082e-07
679, 9.692325e+05, 2.420000e+17, 2.461052e-07
680, 9.857612e+05, 2.420000e+17, 1.999498e-07
681, 1.002572e+06, 2.420000e+17, 2.265618e-07
682, 1.019669e+06, 2.420000e+17, 2.391815e-07
683, 1.037058e+06, 2.420000e+17, 1.609083e-07
684, 1.054744e+06, 2.420000e+17, 1.858977e-07
685, 1.072731e+06, 2.420000e+17, 1.888120e-07
686, 1.091024e+06, 2.420000e+17, 2.223557e-07
687, 1.109630e+06, 2.420000e+17, 2.321061e-07
688, 1.128553e+06, 2.420000e+17, 1.574871e-07
689, 1.147799e+06, 2.420000e+17, 1.658949e-07
690, 1.167373e+06, 2.420000e+17, 1.590912e-07
691, 1.187281e+06, 2.420000e+17, 1.575930e-07
692, 1.207528e+06, 2.420000e+17, 1.494082e-07
693, 1.228120e+06, 2.420000e+17, 1.439773e-07
694, 1.249064e+06, 2.420000e+17, 1.494144e-07
695, 1.270365e+06, 2.420000e+17, 1.251297e-07
696, 1.292029e+06, 2.420000e+17, 1.142632e-07
697, 1.314063e+06, 2.420000e+17, 1.259419e-07
698, 1.336472e+06, 2.420000e+17, 1.538257e-07
699, 1.359263e+06, 2.420000e+17, 1.189664e-07
700, 1.382443e+06, 2.420000e+17, 8.730108e-08
701, 1.406019e+06, 2.420000e+17, 1.201261e-07
702, 1.429996e+06, 2.420000e+17, 8.256042e-08
703, 1.454383e+06, 2.420000e+17, 1.026278e-07
704, 1.479185e+06, 2.420000e+17, 8.067503e-08
705, 1.504410e+06, 2.420000e+17, 1.072782e-07
706, 1.530066e+06, 2.420000e+17, 1.083808e-07
707, 1.556159e+06, 2.420000e+17, 9.497139e-08
708, 1.582696e+06, 2.420000e+17, 1.063715e-07
709, 1.609687e+06, 2.420000e+17, 1.102490e-07
710, 1.637138e+06, 2.420000e+17, 7.839313e-08
711, 1.665057e+06, 2.420000e+17, 7.335924e-08
712, 1.693451e+06, 2.420000e+17, 8.110163e-08
713, 1.722331e+06, 2.420000e+17, 7.516837e-08
714, 1.751702e+06, 2.420000e+17, 6.762774e-08
715, 1.781575e+06, 2.420000e+17, 6.125614e-08
716, 1.811957e+06, 2.420000e+17, 6.347690e-08
717, 1.842857e+06, 2.420000e+17, 6.643725e-08
718, 1.874284e+06, 2.420000e+17, 7.690344e-08
719, 1.906247e+06, 2.420000e+17, 6.257706e-08
720, 1.938755e+06, 2.420000e+17, 5.545810e-08
721, 1.971818e+06, 2.420000e+17, 5.538364e-08
722, 2.005444e+06, 2.420000e+17, 4.886899e-08
723, 2.039644e+06, 2.420000e+17, 5.884071e-08
724, 2.074427e+06, 2.420000e+17, 3.994421e-08
725, 2.109803e+06, 2.420000e+17, 5.348846e-08
726, 2.145783e+06, 2.420000e+17, 4.710394e-08
727, 2.182376e+06, 2.420000e+17, 5.320860e-08
728, 2.219593e+06, 2.420000e+17, 5.762028e-08
729, 2.257444e+06, 2.420000e+17, 4.736127e-08
730, 2.295942e+06, 2.420000e+17, 4.940968e-08
731, 2.335095e+06, 2.420000e+17, 3.714091e-08
732, 2.374917e+06, 2.420000e+17, 3.452504e-08
733, 2.415417e+06, 2.420000e+17, 3.188551e-08
734, 2.456609e+06, 2.420000e+17, 3.915655e-08
735, 2.498502e+06, 2.420000e+17, 4.509394e-08
736, 2.541110e+06, 2.420000e+17, 3.220694e-08
737, 2.584445e+06, 2.420000e+17, 3.263584e-08
738, 2.628519e+06, 2.420000e+17, 4.126592e-08
739, 2.673344e+06, 2.420000e+17, 3.329305e-08
740, 2.718934e+06, 2.420000e+17, 3.562699e-08
741, 2.765301e+06, 2.420000e+17, 2.703621e-08
742, 2.812459e+06, 2.420000e+17, 2.036786e-08
743, 2.860421e+06, 2.420000e+17, 3.189959e-08
744, 2.909201e+06, 2.420000e+17, 2.413903e-08
745, 2.958813e+06, 2.420000e+17, 2.496108e-08
746, 3.009271e+06, 2.420000e+17, 2.645195e-08
747, 3.060590e+06, 2.420000e+17, 2.699980e-08
748, 3.112783e+06, 2.420000e+17, 1.666460e-08
749, 3.165867e+06, 2.420000e+17, 2.500333e-08
750, 3.219856e+06, 2.420000e+17, 2.660644e-08
751, 3.274766e+06, 2.420000e+17, 2.005560e-08
752, 3.330612e+06, 2.420000e+17, 1.530753e-08
753, 3.387410e+06, 2.420000e+17, 1.611541e-08
754, 3.445178e+06, 2.420000e+17, 1.526249e-08
755, 3.503930e+06, 2.420000e+17, 1.547217e-08
756, 3.563684e+06, 2.420000e+17, 1.209046e-08
757, 3.624457e+06, 2.420000e+17, 2.707858e-08
758, 3.686267e+06, 2.420000e+17, 9.442700e-09
759, 3.749130e+06, 2.420000e+17, 1.136727e-08
760, 3.813066e+06, 2.420000e+17, 1.160681e-08
761, 3.878092e+06, 2.420000e+17, 1.242368e-08
762, 3.944227e+06, 2.420000e+17, 7.327051e-09
763, 4.011489e+06, 2.420000e+17, 1.031366e-08
764, 4.079899e+06, 2.420000e+17, 7.632064e-09
765, 4.149476e+06, 2.420000e+17, 7.178556e-09
766, 4.220238e+06, 2.420000e+17, 6.631583e-09
767, 4.292208e+06, 2.420000e+17, 5.553511e-09
768, 4.365405e+06, 2.420000e+17, 5.351214e-09
769, 4.439850e+06, 2.420000e+17, 6.263011e-09
770, 4.515565e+06, 2.420000e+17, 5.992703e-09
771, 4.592571e+06, 2.420000e+17, 4.643950e-09
772, 4.670890e+06, 2.420000e+17, 4.270914e-09
773, 4.750545e+06, 2.420000e+17, 5.070758e-09
774, 4.831559e+06, 2.420000e+17, 4.050747e-09
775, 4.913953e+06, 2.420000e+17, 3.638201e-09
776, 4.997753e+06, 2.420000e+17, 4.085500e-09
777, 5.082982e+06, 2.420000e+17, 3.672362e-09
778, 5.169665e+06, 2.420000e+17, 3.084197e-09
779, 5.257825e+06, 2.420000e+17, 2.765659e-09
780, 5.347489e+06, 2.420000e+17, 2.533330e-09
781, 5.438683e+06, 2.420000e+17, 2.450041e-09
782, 5.531431e+06, 2.420000e+17, 2.263657e-09
783, 5.625761e+06, 2.420000e+17, 2.002006e-09
784, 5.721700e+06, 2.420000e+17, 1.691013e-09
785, 5.819275e+06, 2.420000e+17, 1.472270e-09
786, 5.918513e+06, 2.420000e+17, 1.315537e-09
787, 6.019444e+06, 2.420000e+17, 1.108172e-09
788, 6.122097e+06, 2.420000e+17, 9.202120e-10
789, 6.226500e+06, 2.420000e+17, 7.668192e-10
790, 6.332683e+06, 2.420000e+17, 5.932740e-10
791, 6.440677e+06, 2.420000e+17, 4.467836e-10
792, 6.550513e+06, 2.420000e+17, 3.104472e-10
793, 6.662222e+06, 2.420000e+17, 1.683551e-10
794, 6.775836e+06, 2.420000e+17, 3.086794e-11
795, 6.891387e+06, 2.420000e+17, 1.564515e-12
796, 7.008909e+06, 2.420000e+17, 1.107911e-13
797, 7.128436e+06, 2.420000e+17, 4.107510e-15
798, 7.250000e+06, 2.420000e+17, 2.904546e-16
799, 7.373638e+06, 2.420000e+17, 2.836711e-17
800, 7.499384e+06, 2.420000e+17, 1.113240e-18
801, 7.627274e+06, 2.420000e+17, 0.000000e+00
802, 7.757346e+06, 2.420000e+17, 0.000000e+00
803, 7.889635e+06, 2.420000e+17, 0.000000e+00
804, 8.024181e+06, 2.420000e+17, 0.000000e+00
805, 8.161021e+06, 2.420000e+17, 0.000000e+00
806, 8.300194e+06, 2.420000e+17, 0.000000e+00
807, 8.441742e+06, 2.420000e+17, 0.000000e+00
808, 8.585702e+06, 2.420000e+17, 0.000000e+00
809, 8.732118e+06, 2.420000e+17, 0.000000e+00
810, 8.881031e+06, 2.420000e+17, 0.000000e+00
811, 9.032484e+06, 2.420000e+17, 0.000000e+00
812, 9.186519e+06, 2.420000e+17, 0.000000e+00
813, 9.343181e+06, 2.420000e+17, 0.000000e+00
814, 9.502514e+06, 2.420000e+17, 0.000000e+00
815, 9.664565e+06, 2.420000e+17, 0.000000e+00
816, 9.829379e+06, 2.420000e+17, 0.000000e+00
817, 9.997004e+06, 2.420000e+17, 0.000000e+00
818, 1.016749e+07, 2.420000e+17, 0.000000e+00
819, 1.034088e+07, 2.420000e+17, 0.000000e+00
820, 1.051723e+07, 2.420000e+17, 0.000000e+00
821, 1.069658e+07, 2.420000e+17, 0.000000e+00
822, 1.087900e+07, 2.420000e+17, 0.000000e+00
823, 1.106452e+07, 2.420000e+17, 0.000000e+00
824, 1.125321e+07, 2.420000e+17, 0.000000e+00
825, 1.144511e+07, 2.420000e+17, 0.000000e+00
826, 1.164029e+07, 2.420000e+17, 0.000000e+00
827, 1.183880e+07, 2.420000e+17, 0.000000e+00
828, 1.204069e+07, 2.420000e+17, 0.000000e+00
829, 1.224603e+07, 2.420000e+17, 0.000000e+00
830, 1.245487e+07, 2.420000e+17, 0.000000e+00
831, 1.266726e+07, 2.420000e+17, 0.000000e+00
832, 1.288328e+07, 2.420000e+17, 0.000000e+00
833, 1.310299e+07, 2.420000e+17, 0.000000e+00
834, 1.332644e+07, 2.420000e+17, 0.000000e+00
835, 1.355370e+07, 2.420000e+17, 0.000000e+00
836, 1.378484e+07, 2.420000e+17, 0.000000e+00
837, 1.401992e+07, 2.420000e+17, 0.000000e+00
838, 1.425901e+07, 2.420000e+17, 0.000000e+00
839, 1.450217e+07, 2.420000e+17, 0.000000e+00
840, 1.474948e+07, 2.420000e+17, 0.000000e+00
841, 1.500101e+07, 2.420000e+17, 0.000000e+00
842, 1.525683e+07, 2.420000e+17, 0.000000e+00
843, 1.551702e+07, 2.420000e+17, 0.000000e+00
844, 1.578163e+07, 2.420000e+17, 0.000000e+00
845, 1.605077e+07, 2.420000e+17, 0.000000e+00
846, 1.632449e+07, 2.420000e+17, 0.000000e+00
847, 1.660288e+07, 2.420000e+17, 0.000000e+00
848, 1.688601e+07, 2.420000e+17, 0.000000e+00
849, 1.717398e+07, 2.420000e+17, 0.000000e+00
850, 1.746685e+07, 2.420000e+17, 0.000000e+00
851, 1.776472e+07, 2.420000e+17, 0.000000e+00
852, 1.806767e+07, 2.420000e+17, 0.000000e+00
853, 1.837579e+07, 2.420000e+17, 0.000000e+00
854, 1.868916e+07, 2.420000e+17, 0.000000e+00
855, 1.900788e+07, 2.420000e+17, 0.000000e+00
856, 1.933203e+07, 2.420000e+17, 0.000000e+00
857, 1.966170e+07, 2.420000e+17, 0.000000e+00
858, 1.999700e+07, 2.420000e+17, 0.000000e+00
859, 2.033802e+07, 2.420000e+17, 0.000000e+00
860, 2.068486e+07, 2.420000e+17, 0.000000e+00
861, 2.103760e+07, 2.420000e+17, 0.000000e+00
862, 2.139637e+07, 2.420000e+17, 0.000000e+00
863, 2.176125e+07, 2.420000e+17, 0.000000e+00
864, 2.213235e+07, 2.420000e+17, 0.000000e+00
865, 2.250979e+07, 2.420000e+17, 0.000000e+00
866, 2.289366e+07, 2.420000e+17, 0.000000e+00
867, 2.328407e+07, 2.420000e+17, 0.000000e+00
868, 2.368115e+07, 2.420000e+17, 0.000000e+00
869, 2.408499e+07, 2.420000e+17, 0.000000e+00
870, 2.449573e+07, 2.420000e+17, 0.000000e+00
871, 2.491346e+07, 2.420000e+17, 0.000000e+00
872, 2.533832e+07, 2.420000e+17, 0.000000e+00
873, 2.577043e+07, 2.420000e+17, 0.000000e+00
874, 2.620990e+07, 2.420000e+17, 0.000000e+00
875, 2.665687e+07, 2.420000e+17, 0.000000e+00
876, 2.711147e+07, 2.420000e+17, 0.000000e+00
877, 2.757381e+07, 2.420000e+17, 0.000000e+00
878, 2.804404e+07, 2.420000e+17, 0.000000e+00
879, 2.852229e+07, 2.420000e+17, 0.000000e+00
880, 2.900869e+07, 2.420000e+17, 0.000000e+00
881, 2.950339e+07, 2.420000e+17, 0.000000e+00
882, 3.000652e+07, 2.420000e+17, 0.000000e+00
883, 3.051824e+07, 2.420000e+17, 0.000000e+00
884, 3.103868e+07, 2.420000e+17, 0.000000e+00
885, 3.156800e+07, 2.420000e+17, 0.000000e+00
886, 3.210634e+07, 2.420000e+17, 0.000000e+00
887, 3.265387e+07, 2.420000e+17, 0.000000e+00
888, 3.321073e+07, 2.420000e+17, 0.000000e+00
889, 3.377709e+07, 2.420000e+17, 0.000000e+00
890, 3.435310e+07, 2.420000e+17, 0.000000e+00
891, 3.493894e+07, 2.420000e+17, 0.000000e+00
892, 3.553477e+07, 2.420000e+17, 0.000000e+00
893, 3.614076e+07, 2.420000e+17, 0.000000e+00
894, 3.675709e+07, 2.420000e+17, 0.000000e+00
895, 3.738392e+07, 2.420000e+17, 0.000000e+00
896, 3.802145e+07, 2.420000e+17, 0.000000e+00
897, 3.866984e+07, 2.420000e+17, 0.000000e+00
898, 3.932930e+07, 2.420000e+17, 0.000000e+00
899, 4.000000e+07, 2.420000e+17, 0.000000e+00
