#######################################################
#              BOX-FIT. Release 2 
# Last modified: July 29, 2016, by HJvE 
#
# reference: "Gamma-ray burst afterglow broadband 
#   fitting based directly on hydrodynamics simulations"
#   H.J. van Eerten, A.J. van der Horst, A.I. MacFadyen
#   ApJ (2012) Issue 749, Page 44
#   ArXiv: 1110.5089
#
# Development of the Boxfit code was supported in part 
# by NASA through grant NNX10AF62G issued through the 
# Astrophysics Theory Program and by the NSF through 
# grant AST-1009863.
#######################################################
# BOXFIT Compiled WITH boosted frames support
# I/O settings:
#   using parameter file /Volumes/Storage/taylor/git_projects/SSC_boxfit/settings/1e53/log_ee_eb_1e3_sync/Vsettings.txt
#   base filename BOX files: /Volumes/storage/taylor/git_projects/SSC_boxfit/data/boxboostISM/boxboostISM_
#   Not storing intermediate d F / d t_e
#####################################################
# radiation switches
#   synchrotron self-absorption is enabled
#   synchrotron self-absorption is computed globally for each ray.
#   electron cooling is enabled
#   box data is included
#   Blandford-McKee analytical data is included
#   Calculating forward jet only.
#####################################################
# Model parameter settings:
#   theta_0 = 4.500000e-01 (rad)
#   E_iso = 1.000000e+53 (erg)
#   n_0 = 5.000000e-01 (cm^-3)
#   theta_obs = 0.000000e+00 (rad)
#   p = 2.500000e+00
#   epsilon_B = 1.000000e-05
#   epsilon_E = 1.000000e-01
#   ksi_N = 1.000000e+00
###################################################
# Time and frequency settings
#   nu_0 = 5.440000e+14 (Hz)
#   t_0 = 1.000000e+01 (s), t_1 = 4.000000e+07 (s)
#####################################################
# Observer distance settings
#   luminosity distance: 1.000000e+28 (cm)
#   redshift: 5.000000e-01
#####################################################
# BOX data:
#   number of boxes: 23
#   box 0 : theta_0 = 1.000000e-02
#   box 1 : theta_0 = 2.000000e-02
#   box 2 : theta_0 = 3.000000e-02
#   box 3 : theta_0 = 4.000000e-02
#   box 4 : theta_0 = 4.500000e-02
#   box 5 : theta_0 = 5.000000e-02
#   box 6 : theta_0 = 7.500000e-02
#   box 7 : theta_0 = 1.000000e-01
#   box 8 : theta_0 = 1.250000e-01
#   box 9 : theta_0 = 1.500000e-01
#   box 10 : theta_0 = 1.750000e-01
#   box 11 : theta_0 = 2.000000e-01
#   box 12 : theta_0 = 2.250000e-01
#   box 13 : theta_0 = 2.500000e-01
#   box 14 : theta_0 = 2.750000e-01
#   box 15 : theta_0 = 3.000000e-01
#   box 16 : theta_0 = 3.250000e-01
#   box 17 : theta_0 = 3.500000e-01
#   box 18 : theta_0 = 3.750000e-01
#   box 19 : theta_0 = 4.000000e-01
#   box 20 : theta_0 = 4.250000e-01
#   box 21 : theta_0 = 4.500000e-01
#   box 22 : theta_0 = 5.000000e-01
#   Box boost Lorentz factor: 5.000000e+00
#   Counter-jet data is not available in the BOX files.
#   BOX data for k = 0 (ISM environment).
#####################################################
# Resolution settings:
#   BM / BOX emission time resolution 'res' = 300
#   EDS resolution: phi rays = 60, r rays = 300
#   EDS ur_max computed dynamically
#   Emission time t_0 computed dynamically
#   Emission time t_1 computed dynamically
#   Starting Blandford-McKee fluid Lorentz factor: 3.000000e+02
#   EDS outer radius estimated analytically
#   Emission frame time t0 estimated analytically.
#   Emission frame time t1 estimated analytically.
#####################################################
# i, t (s), nu (Hz), F (mJy)
0, 1.000000e+01, 5.440000e+14, 0.000000e+00
1, 1.017053e+01, 5.440000e+14, 0.000000e+00
2, 1.034398e+01, 5.440000e+14, 0.000000e+00
3, 1.052038e+01, 5.440000e+14, 0.000000e+00
4, 1.069979e+01, 5.440000e+14, 0.000000e+00
5, 1.088226e+01, 5.440000e+14, 0.000000e+00
6, 1.106784e+01, 5.440000e+14, 8.563187e-04
7, 1.125658e+01, 5.440000e+14, 5.448643e-03
8, 1.144854e+01, 5.440000e+14, 1.075588e-02
9, 1.164378e+01, 5.440000e+14, 1.508618e-02
10, 1.184235e+01, 5.440000e+14, 1.893922e-02
11, 1.204430e+01, 5.440000e+14, 2.525381e-02
12, 1.224970e+01, 5.440000e+14, 3.246667e-02
13, 1.245860e+01, 5.440000e+14, 3.837435e-02
14, 1.267106e+01, 5.440000e+14, 4.415137e-02
15, 1.288715e+01, 5.440000e+14, 5.030742e-02
16, 1.310692e+01, 5.440000e+14, 5.547931e-02
17, 1.333043e+01, 5.440000e+14, 5.885563e-02
18, 1.355776e+01, 5.440000e+14, 6.207819e-02
19, 1.378897e+01, 5.440000e+14, 6.953303e-02
20, 1.402412e+01, 5.440000e+14, 7.720396e-02
21, 1.426328e+01, 5.440000e+14, 8.462492e-02
22, 1.450652e+01, 5.440000e+14, 9.202080e-02
23, 1.475391e+01, 5.440000e+14, 9.916610e-02
24, 1.500551e+01, 5.440000e+14, 1.053067e-01
25, 1.526141e+01, 5.440000e+14, 1.060518e-01
26, 1.552167e+01, 5.440000e+14, 1.137852e-01
27, 1.578636e+01, 5.440000e+14, 1.213291e-01
28, 1.605558e+01, 5.440000e+14, 1.286241e-01
29, 1.632938e+01, 5.440000e+14, 1.355502e-01
30, 1.660785e+01, 5.440000e+14, 1.417008e-01
31, 1.689107e+01, 5.440000e+14, 1.467075e-01
32, 1.717912e+01, 5.440000e+14, 1.413515e-01
33, 1.747209e+01, 5.440000e+14, 1.462005e-01
34, 1.777005e+01, 5.440000e+14, 1.506643e-01
35, 1.807309e+01, 5.440000e+14, 1.553772e-01
36, 1.838130e+01, 5.440000e+14, 1.598386e-01
37, 1.869476e+01, 5.440000e+14, 1.643187e-01
38, 1.901357e+01, 5.440000e+14, 1.681918e-01
39, 1.933782e+01, 5.440000e+14, 1.582678e-01
40, 1.966760e+01, 5.440000e+14, 1.543177e-01
41, 2.000300e+01, 5.440000e+14, 1.593845e-01
42, 2.034412e+01, 5.440000e+14, 1.644972e-01
43, 2.069105e+01, 5.440000e+14, 1.698554e-01
44, 2.104391e+01, 5.440000e+14, 1.753255e-01
45, 2.140278e+01, 5.440000e+14, 1.794756e-01
46, 2.176777e+01, 5.440000e+14, 1.791628e-01
47, 2.213899e+01, 5.440000e+14, 1.768969e-01
48, 2.251653e+01, 5.440000e+14, 1.827080e-01
49, 2.290052e+01, 5.440000e+14, 1.895627e-01
50, 2.329105e+01, 5.440000e+14, 1.963315e-01
51, 2.368824e+01, 5.440000e+14, 2.024096e-01
52, 2.409221e+01, 5.440000e+14, 2.031207e-01
53, 2.450307e+01, 5.440000e+14, 1.989087e-01
54, 2.492093e+01, 5.440000e+14, 1.842219e-01
55, 2.534592e+01, 5.440000e+14, 1.913993e-01
56, 2.577815e+01, 5.440000e+14, 1.989277e-01
57, 2.621776e+01, 5.440000e+14, 2.069611e-01
58, 2.666486e+01, 5.440000e+14, 2.118513e-01
59, 2.711959e+01, 5.440000e+14, 2.154399e-01
60, 2.758207e+01, 5.440000e+14, 2.166837e-01
61, 2.805244e+01, 5.440000e+14, 2.069267e-01
62, 2.853084e+01, 5.440000e+14, 2.151335e-01
63, 2.901738e+01, 5.440000e+14, 2.234783e-01
64, 2.951223e+01, 5.440000e+14, 2.305077e-01
65, 3.001552e+01, 5.440000e+14, 2.359715e-01
66, 3.052739e+01, 5.440000e+14, 2.406994e-01
67, 3.104798e+01, 5.440000e+14, 2.433640e-01
68, 3.157746e+01, 5.440000e+14, 2.409298e-01
69, 3.211596e+01, 5.440000e+14, 2.425726e-01
70, 3.266365e+01, 5.440000e+14, 2.494164e-01
71, 3.322068e+01, 5.440000e+14, 2.551326e-01
72, 3.378721e+01, 5.440000e+14, 2.593742e-01
73, 3.436340e+01, 5.440000e+14, 2.633935e-01
74, 3.494941e+01, 5.440000e+14, 2.643824e-01
75, 3.554542e+01, 5.440000e+14, 2.594654e-01
76, 3.615159e+01, 5.440000e+14, 2.460084e-01
77, 3.676810e+01, 5.440000e+14, 2.534576e-01
78, 3.739513e+01, 5.440000e+14, 2.618691e-01
79, 3.803284e+01, 5.440000e+14, 2.700122e-01
80, 3.868143e+01, 5.440000e+14, 2.771290e-01
81, 3.934109e+01, 5.440000e+14, 2.851830e-01
82, 4.001199e+01, 5.440000e+14, 2.873333e-01
83, 4.069433e+01, 5.440000e+14, 2.814113e-01
84, 4.138831e+01, 5.440000e+14, 2.887684e-01
85, 4.209412e+01, 5.440000e+14, 2.963977e-01
86, 4.281197e+01, 5.440000e+14, 3.041135e-01
87, 4.354207e+01, 5.440000e+14, 3.103727e-01
88, 4.428461e+01, 5.440000e+14, 3.126315e-01
89, 4.503981e+01, 5.440000e+14, 3.103111e-01
90, 4.580790e+01, 5.440000e+14, 2.856153e-01
91, 4.658908e+01, 5.440000e+14, 2.941931e-01
92, 4.738359e+01, 5.440000e+14, 3.041839e-01
93, 4.819164e+01, 5.440000e+14, 3.129024e-01
94, 4.901348e+01, 5.440000e+14, 3.194668e-01
95, 4.984933e+01, 5.440000e+14, 3.262184e-01
96, 5.069943e+01, 5.440000e+14, 3.290391e-01
97, 5.156403e+01, 5.440000e+14, 3.257092e-01
98, 5.244338e+01, 5.440000e+14, 3.238275e-01
99, 5.333772e+01, 5.440000e+14, 3.347899e-01
100, 5.424731e+01, 5.440000e+14, 3.430432e-01
101, 5.517241e+01, 5.440000e+14, 3.509182e-01
102, 5.611329e+01, 5.440000e+14, 3.575030e-01
103, 5.707022e+01, 5.440000e+14, 3.619148e-01
104, 5.804346e+01, 5.440000e+14, 3.613908e-01
105, 5.903331e+01, 5.440000e+14, 3.523805e-01
106, 6.004003e+01, 5.440000e+14, 3.612196e-01
107, 6.106392e+01, 5.440000e+14, 3.703917e-01
108, 6.210527e+01, 5.440000e+14, 3.786331e-01
109, 6.316438e+01, 5.440000e+14, 3.857751e-01
110, 6.424155e+01, 5.440000e+14, 3.894881e-01
111, 6.533709e+01, 5.440000e+14, 3.862414e-01
112, 6.645132e+01, 5.440000e+14, 3.594433e-01
113, 6.758454e+01, 5.440000e+14, 3.706845e-01
114, 6.873709e+01, 5.440000e+14, 3.824642e-01
115, 6.990930e+01, 5.440000e+14, 3.923507e-01
116, 7.110149e+01, 5.440000e+14, 4.025257e-01
117, 7.231402e+01, 5.440000e+14, 4.101900e-01
118, 7.354722e+01, 5.440000e+14, 4.130304e-01
119, 7.480146e+01, 5.440000e+14, 4.048039e-01
120, 7.607708e+01, 5.440000e+14, 4.119585e-01
121, 7.737446e+01, 5.440000e+14, 4.216019e-01
122, 7.869396e+01, 5.440000e+14, 4.316376e-01
123, 8.003596e+01, 5.440000e+14, 4.374036e-01
124, 8.140085e+01, 5.440000e+14, 4.395489e-01
125, 8.278902e+01, 5.440000e+14, 4.383634e-01
126, 8.420086e+01, 5.440000e+14, 4.230933e-01
127, 8.563678e+01, 5.440000e+14, 4.089397e-01
128, 8.709718e+01, 5.440000e+14, 4.184356e-01
129, 8.858249e+01, 5.440000e+14, 4.278917e-01
130, 9.009313e+01, 5.440000e+14, 4.335340e-01
131, 9.162953e+01, 5.440000e+14, 4.402916e-01
132, 9.319213e+01, 5.440000e+14, 4.435462e-01
133, 9.478137e+01, 5.440000e+14, 4.389493e-01
134, 9.639772e+01, 5.440000e+14, 4.235368e-01
135, 9.804164e+01, 5.440000e+14, 4.348548e-01
136, 9.971359e+01, 5.440000e+14, 4.422910e-01
137, 1.014141e+02, 5.440000e+14, 4.506197e-01
138, 1.031435e+02, 5.440000e+14, 4.589825e-01
139, 1.049025e+02, 5.440000e+14, 4.588292e-01
140, 1.066914e+02, 5.440000e+14, 4.585258e-01
141, 1.085109e+02, 5.440000e+14, 4.344738e-01
142, 1.103614e+02, 5.440000e+14, 4.449059e-01
143, 1.122434e+02, 5.440000e+14, 4.499123e-01
144, 1.141575e+02, 5.440000e+14, 4.575955e-01
145, 1.161043e+02, 5.440000e+14, 4.631797e-01
146, 1.180843e+02, 5.440000e+14, 4.623217e-01
147, 1.200980e+02, 5.440000e+14, 4.545422e-01
148, 1.221461e+02, 5.440000e+14, 4.241949e-01
149, 1.242291e+02, 5.440000e+14, 4.163439e-01
150, 1.263477e+02, 5.440000e+14, 4.266461e-01
151, 1.285024e+02, 5.440000e+14, 4.363476e-01
152, 1.306938e+02, 5.440000e+14, 4.385971e-01
153, 1.329225e+02, 5.440000e+14, 4.441412e-01
154, 1.351893e+02, 5.440000e+14, 4.497127e-01
155, 1.374948e+02, 5.440000e+14, 4.414711e-01
156, 1.398395e+02, 5.440000e+14, 4.326278e-01
157, 1.422243e+02, 5.440000e+14, 4.434807e-01
158, 1.446497e+02, 5.440000e+14, 4.449692e-01
159, 1.471165e+02, 5.440000e+14, 4.467868e-01
160, 1.496253e+02, 5.440000e+14, 4.516271e-01
161, 1.521770e+02, 5.440000e+14, 4.469717e-01
162, 1.547721e+02, 5.440000e+14, 4.324144e-01
163, 1.574115e+02, 5.440000e+14, 3.873035e-01
164, 1.600959e+02, 5.440000e+14, 3.942569e-01
165, 1.628261e+02, 5.440000e+14, 4.062241e-01
166, 1.656029e+02, 5.440000e+14, 4.127953e-01
167, 1.684270e+02, 5.440000e+14, 4.197388e-01
168, 1.712992e+02, 5.440000e+14, 4.182083e-01
169, 1.742205e+02, 5.440000e+14, 4.160917e-01
170, 1.771915e+02, 5.440000e+14, 3.809341e-01
171, 1.802132e+02, 5.440000e+14, 3.927791e-01
172, 1.832865e+02, 5.440000e+14, 4.008170e-01
173, 1.864122e+02, 5.440000e+14, 4.098021e-01
174, 1.895912e+02, 5.440000e+14, 4.131867e-01
175, 1.928243e+02, 5.440000e+14, 4.171694e-01
176, 1.961127e+02, 5.440000e+14, 4.123102e-01
177, 1.994571e+02, 5.440000e+14, 3.940551e-01
178, 2.028585e+02, 5.440000e+14, 3.853601e-01
179, 2.063179e+02, 5.440000e+14, 3.968885e-01
180, 2.098364e+02, 5.440000e+14, 4.024445e-01
181, 2.134148e+02, 5.440000e+14, 4.075964e-01
182, 2.170543e+02, 5.440000e+14, 4.057942e-01
183, 2.207558e+02, 5.440000e+14, 3.993323e-01
184, 2.245204e+02, 5.440000e+14, 3.711147e-01
185, 2.283493e+02, 5.440000e+14, 3.304533e-01
186, 2.322434e+02, 5.440000e+14, 3.390145e-01
187, 2.362040e+02, 5.440000e+14, 3.488931e-01
188, 2.402321e+02, 5.440000e+14, 3.648955e-01
189, 2.443289e+02, 5.440000e+14, 3.683565e-01
190, 2.484955e+02, 5.440000e+14, 3.751275e-01
191, 2.527332e+02, 5.440000e+14, 3.665239e-01
192, 2.570432e+02, 5.440000e+14, 3.416764e-01
193, 2.614267e+02, 5.440000e+14, 3.493468e-01
194, 2.658849e+02, 5.440000e+14, 3.614045e-01
195, 2.704192e+02, 5.440000e+14, 3.669661e-01
196, 2.750308e+02, 5.440000e+14, 3.712869e-01
197, 2.797210e+02, 5.440000e+14, 3.701445e-01
198, 2.844912e+02, 5.440000e+14, 3.583008e-01
199, 2.893428e+02, 5.440000e+14, 2.981389e-01
200, 2.942771e+02, 5.440000e+14, 3.066254e-01
201, 2.992955e+02, 5.440000e+14, 3.141557e-01
202, 3.043995e+02, 5.440000e+14, 3.208179e-01
203, 3.095906e+02, 5.440000e+14, 3.291433e-01
204, 3.148702e+02, 5.440000e+14, 3.268605e-01
205, 3.202398e+02, 5.440000e+14, 3.261782e-01
206, 3.257010e+02, 5.440000e+14, 3.113049e-01
207, 3.312553e+02, 5.440000e+14, 3.003607e-01
208, 3.369044e+02, 5.440000e+14, 3.086696e-01
209, 3.426498e+02, 5.440000e+14, 3.124522e-01
210, 3.484931e+02, 5.440000e+14, 3.163172e-01
211, 3.544361e+02, 5.440000e+14, 3.213031e-01
212, 3.604805e+02, 5.440000e+14, 3.139260e-01
213, 3.666279e+02, 5.440000e+14, 3.037451e-01
214, 3.728802e+02, 5.440000e+14, 2.953915e-01
215, 3.792391e+02, 5.440000e+14, 2.964991e-01
216, 3.857065e+02, 5.440000e+14, 3.011313e-01
217, 3.922841e+02, 5.440000e+14, 3.008556e-01
218, 3.989739e+02, 5.440000e+14, 2.954698e-01
219, 4.057778e+02, 5.440000e+14, 2.903064e-01
220, 4.126977e+02, 5.440000e+14, 2.672276e-01
221, 4.197356e+02, 5.440000e+14, 2.592165e-01
222, 4.268936e+02, 5.440000e+14, 2.658632e-01
223, 4.341736e+02, 5.440000e+14, 2.698190e-01
224, 4.415777e+02, 5.440000e+14, 2.729654e-01
225, 4.491082e+02, 5.440000e+14, 2.755198e-01
226, 4.567670e+02, 5.440000e+14, 2.682775e-01
227, 4.645565e+02, 5.440000e+14, 2.632933e-01
228, 4.724788e+02, 5.440000e+14, 2.644440e-01
229, 4.805362e+02, 5.440000e+14, 2.605825e-01
230, 4.887310e+02, 5.440000e+14, 2.592764e-01
231, 4.970655e+02, 5.440000e+14, 2.526495e-01
232, 5.055422e+02, 5.440000e+14, 2.434180e-01
233, 5.141634e+02, 5.440000e+14, 2.300908e-01
234, 5.229317e+02, 5.440000e+14, 2.384805e-01
235, 5.318495e+02, 5.440000e+14, 2.508673e-01
236, 5.409194e+02, 5.440000e+14, 2.505932e-01
237, 5.501439e+02, 5.440000e+14, 2.445907e-01
238, 5.595258e+02, 5.440000e+14, 2.342484e-01
239, 5.690676e+02, 5.440000e+14, 2.385310e-01
240, 5.787722e+02, 5.440000e+14, 2.379001e-01
241, 5.886423e+02, 5.440000e+14, 2.326213e-01
242, 5.986807e+02, 5.440000e+14, 2.287355e-01
243, 6.088902e+02, 5.440000e+14, 2.130953e-01
244, 6.192739e+02, 5.440000e+14, 2.240238e-01
245, 6.298347e+02, 5.440000e+14, 2.218479e-01
246, 6.405756e+02, 5.440000e+14, 2.110176e-01
247, 6.514996e+02, 5.440000e+14, 2.051529e-01
248, 6.626099e+02, 5.440000e+14, 2.000656e-01
249, 6.739097e+02, 5.440000e+14, 2.082788e-01
250, 6.854022e+02, 5.440000e+14, 2.149204e-01
251, 6.970907e+02, 5.440000e+14, 2.074218e-01
252, 7.089785e+02, 5.440000e+14, 2.019451e-01
253, 7.210690e+02, 5.440000e+14, 1.982167e-01
254, 7.333657e+02, 5.440000e+14, 2.005753e-01
255, 7.458722e+02, 5.440000e+14, 1.936386e-01
256, 7.585919e+02, 5.440000e+14, 1.831022e-01
257, 7.715285e+02, 5.440000e+14, 1.771608e-01
258, 7.846857e+02, 5.440000e+14, 1.771101e-01
259, 7.980673e+02, 5.440000e+14, 1.833777e-01
260, 8.116771e+02, 5.440000e+14, 1.857943e-01
261, 8.255190e+02, 5.440000e+14, 1.789109e-01
262, 8.395970e+02, 5.440000e+14, 1.757945e-01
263, 8.539150e+02, 5.440000e+14, 1.739873e-01
264, 8.684772e+02, 5.440000e+14, 1.699981e-01
265, 8.832878e+02, 5.440000e+14, 1.705830e-01
266, 8.983509e+02, 5.440000e+14, 1.656683e-01
267, 9.136709e+02, 5.440000e+14, 1.569721e-01
268, 9.292521e+02, 5.440000e+14, 1.575560e-01
269, 9.450991e+02, 5.440000e+14, 1.593720e-01
270, 9.612163e+02, 5.440000e+14, 1.561270e-01
271, 9.776084e+02, 5.440000e+14, 1.522105e-01
272, 9.942800e+02, 5.440000e+14, 1.433537e-01
273, 1.011236e+03, 5.440000e+14, 1.487244e-01
274, 1.028481e+03, 5.440000e+14, 1.520707e-01
275, 1.046020e+03, 5.440000e+14, 1.491461e-01
276, 1.063858e+03, 5.440000e+14, 1.497246e-01
277, 1.082001e+03, 5.440000e+14, 1.422924e-01
278, 1.100453e+03, 5.440000e+14, 1.379166e-01
279, 1.119219e+03, 5.440000e+14, 1.368875e-01
280, 1.138306e+03, 5.440000e+14, 1.330752e-01
281, 1.157718e+03, 5.440000e+14, 1.277025e-01
282, 1.177461e+03, 5.440000e+14, 1.254280e-01
283, 1.197541e+03, 5.440000e+14, 1.202475e-01
284, 1.217963e+03, 5.440000e+14, 1.234644e-01
285, 1.238733e+03, 5.440000e+14, 1.268822e-01
286, 1.259858e+03, 5.440000e+14, 1.266129e-01
287, 1.281343e+03, 5.440000e+14, 1.177337e-01
288, 1.303194e+03, 5.440000e+14, 1.191393e-01
289, 1.325418e+03, 5.440000e+14, 1.171933e-01
290, 1.348021e+03, 5.440000e+14, 1.135470e-01
291, 1.371010e+03, 5.440000e+14, 1.177539e-01
292, 1.394390e+03, 5.440000e+14, 1.110366e-01
293, 1.418169e+03, 5.440000e+14, 1.073394e-01
294, 1.442354e+03, 5.440000e+14, 1.080458e-01
295, 1.466951e+03, 5.440000e+14, 1.070581e-01
296, 1.491968e+03, 5.440000e+14, 1.035847e-01
297, 1.517411e+03, 5.440000e+14, 1.004239e-01
298, 1.543288e+03, 5.440000e+14, 9.819544e-02
299, 1.569607e+03, 5.440000e+14, 9.607833e-02
300, 1.596374e+03, 5.440000e+14, 9.985550e-02
301, 1.623597e+03, 5.440000e+14, 9.906657e-02
302, 1.651285e+03, 5.440000e+14, 9.469154e-02
303, 1.679446e+03, 5.440000e+14, 9.663624e-02
304, 1.708086e+03, 5.440000e+14, 9.006989e-02
305, 1.737215e+03, 5.440000e+14, 9.262013e-02
306, 1.766840e+03, 5.440000e+14, 8.862712e-02
307, 1.796971e+03, 5.440000e+14, 8.386395e-02
308, 1.827616e+03, 5.440000e+14, 8.398214e-02
309, 1.858783e+03, 5.440000e+14, 7.973570e-02
310, 1.890481e+03, 5.440000e+14, 8.431071e-02
311, 1.922721e+03, 5.440000e+14, 8.374027e-02
312, 1.955510e+03, 5.440000e+14, 8.072776e-02
313, 1.988858e+03, 5.440000e+14, 8.285480e-02
314, 2.022775e+03, 5.440000e+14, 7.718431e-02
315, 2.057270e+03, 5.440000e+14, 7.719683e-02
316, 2.092354e+03, 5.440000e+14, 7.688875e-02
317, 2.128036e+03, 5.440000e+14, 7.400165e-02
318, 2.164326e+03, 5.440000e+14, 7.338790e-02
319, 2.201235e+03, 5.440000e+14, 6.945588e-02
320, 2.238774e+03, 5.440000e+14, 6.759891e-02
321, 2.276953e+03, 5.440000e+14, 6.911373e-02
322, 2.315783e+03, 5.440000e+14, 6.658062e-02
323, 2.355275e+03, 5.440000e+14, 6.587784e-02
324, 2.395440e+03, 5.440000e+14, 6.393451e-02
325, 2.436291e+03, 5.440000e+14, 6.172515e-02
326, 2.477838e+03, 5.440000e+14, 6.310142e-02
327, 2.520094e+03, 5.440000e+14, 6.214327e-02
328, 2.563070e+03, 5.440000e+14, 6.306248e-02
329, 2.606779e+03, 5.440000e+14, 6.006362e-02
330, 2.651234e+03, 5.440000e+14, 5.973765e-02
331, 2.696447e+03, 5.440000e+14, 5.792163e-02
332, 2.742430e+03, 5.440000e+14, 5.726850e-02
333, 2.789198e+03, 5.440000e+14, 5.618235e-02
334, 2.836764e+03, 5.440000e+14, 5.663689e-02
335, 2.885140e+03, 5.440000e+14, 5.518095e-02
336, 2.934342e+03, 5.440000e+14, 5.450947e-02
337, 2.984383e+03, 5.440000e+14, 5.460103e-02
338, 3.035277e+03, 5.440000e+14, 5.315173e-02
339, 3.087039e+03, 5.440000e+14, 5.094257e-02
340, 3.139683e+03, 5.440000e+14, 5.083707e-02
341, 3.193226e+03, 5.440000e+14, 4.908322e-02
342, 3.247682e+03, 5.440000e+14, 4.911549e-02
343, 3.303066e+03, 5.440000e+14, 4.814880e-02
344, 3.359394e+03, 5.440000e+14, 4.615772e-02
345, 3.416684e+03, 5.440000e+14, 4.494968e-02
346, 3.474950e+03, 5.440000e+14, 4.390527e-02
347, 3.534210e+03, 5.440000e+14, 4.323277e-02
348, 3.594480e+03, 5.440000e+14, 4.391061e-02
349, 3.655779e+03, 5.440000e+14, 4.404833e-02
350, 3.718122e+03, 5.440000e+14, 4.329392e-02
351, 3.781529e+03, 5.440000e+14, 4.303320e-02
352, 3.846017e+03, 5.440000e+14, 4.128205e-02
353, 3.911605e+03, 5.440000e+14, 4.204406e-02
354, 3.978312e+03, 5.440000e+14, 4.081317e-02
355, 4.046156e+03, 5.440000e+14, 3.958952e-02
356, 4.115157e+03, 5.440000e+14, 3.885101e-02
357, 4.185334e+03, 5.440000e+14, 3.736858e-02
358, 4.256709e+03, 5.440000e+14, 3.638716e-02
359, 4.329300e+03, 5.440000e+14, 3.536167e-02
360, 4.403130e+03, 5.440000e+14, 3.501082e-02
361, 4.478219e+03, 5.440000e+14, 3.529913e-02
362, 4.554588e+03, 5.440000e+14, 3.462172e-02
363, 4.632259e+03, 5.440000e+14, 3.372123e-02
364, 4.711255e+03, 5.440000e+14, 3.396338e-02
365, 4.791598e+03, 5.440000e+14, 3.362168e-02
366, 4.873312e+03, 5.440000e+14, 3.279679e-02
367, 4.956419e+03, 5.440000e+14, 3.242725e-02
368, 5.040943e+03, 5.440000e+14, 3.184828e-02
369, 5.126908e+03, 5.440000e+14, 3.091152e-02
370, 5.214340e+03, 5.440000e+14, 3.026594e-02
371, 5.303262e+03, 5.440000e+14, 2.969790e-02
372, 5.393701e+03, 5.440000e+14, 2.916278e-02
373, 5.485683e+03, 5.440000e+14, 2.851374e-02
374, 5.579232e+03, 5.440000e+14, 2.860208e-02
375, 5.674378e+03, 5.440000e+14, 2.844565e-02
376, 5.771145e+03, 5.440000e+14, 2.749093e-02
377, 5.869563e+03, 5.440000e+14, 2.685258e-02
378, 5.969660e+03, 5.440000e+14, 2.637178e-02
379, 6.071463e+03, 5.440000e+14, 2.602435e-02
380, 6.175003e+03, 5.440000e+14, 2.548897e-02
381, 6.280308e+03, 5.440000e+14, 2.609478e-02
382, 6.387409e+03, 5.440000e+14, 2.520404e-02
383, 6.496336e+03, 5.440000e+14, 2.442247e-02
384, 6.607121e+03, 5.440000e+14, 2.403745e-02
385, 6.719796e+03, 5.440000e+14, 2.345789e-02
386, 6.834391e+03, 5.440000e+14, 2.321373e-02
387, 6.950941e+03, 5.440000e+14, 2.256317e-02
388, 7.069479e+03, 5.440000e+14, 2.199482e-02
389, 7.190038e+03, 5.440000e+14, 2.187570e-02
390, 7.312653e+03, 5.440000e+14, 2.186451e-02
391, 7.437359e+03, 5.440000e+14, 2.110772e-02
392, 7.564192e+03, 5.440000e+14, 2.132878e-02
393, 7.693187e+03, 5.440000e+14, 2.105928e-02
394, 7.824383e+03, 5.440000e+14, 2.027724e-02
395, 7.957816e+03, 5.440000e+14, 1.980001e-02
396, 8.093524e+03, 5.440000e+14, 1.913289e-02
397, 8.231547e+03, 5.440000e+14, 1.870760e-02
398, 8.371923e+03, 5.440000e+14, 1.865068e-02
399, 8.514693e+03, 5.440000e+14, 1.883800e-02
400, 8.659898e+03, 5.440000e+14, 1.836330e-02
401, 8.807579e+03, 5.440000e+14, 1.798735e-02
402, 8.957779e+03, 5.440000e+14, 1.720578e-02
403, 9.110540e+03, 5.440000e+14, 1.709091e-02
404, 9.265907e+03, 5.440000e+14, 1.698278e-02
405, 9.423922e+03, 5.440000e+14, 1.625409e-02
406, 9.584633e+03, 5.440000e+14, 1.587837e-02
407, 9.748084e+03, 5.440000e+14, 1.593079e-02
408, 9.914323e+03, 5.440000e+14, 1.561837e-02
409, 1.008340e+04, 5.440000e+14, 1.579108e-02
410, 1.025535e+04, 5.440000e+14, 1.533720e-02
411, 1.043024e+04, 5.440000e+14, 1.487213e-02
412, 1.060811e+04, 5.440000e+14, 1.467098e-02
413, 1.078902e+04, 5.440000e+14, 1.462068e-02
414, 1.097301e+04, 5.440000e+14, 1.414410e-02
415, 1.116014e+04, 5.440000e+14, 1.379658e-02
416, 1.135046e+04, 5.440000e+14, 1.332082e-02
417, 1.154402e+04, 5.440000e+14, 1.334907e-02
418, 1.174089e+04, 5.440000e+14, 1.335020e-02
419, 1.194111e+04, 5.440000e+14, 1.302044e-02
420, 1.214475e+04, 5.440000e+14, 1.256690e-02
421, 1.235186e+04, 5.440000e+14, 1.246194e-02
422, 1.256250e+04, 5.440000e+14, 1.241455e-02
423, 1.277673e+04, 5.440000e+14, 1.216044e-02
424, 1.299462e+04, 5.440000e+14, 1.183612e-02
425, 1.321622e+04, 5.440000e+14, 1.129537e-02
426, 1.344160e+04, 5.440000e+14, 1.100083e-02
427, 1.367083e+04, 5.440000e+14, 1.112442e-02
428, 1.390397e+04, 5.440000e+14, 1.096028e-02
429, 1.414108e+04, 5.440000e+14, 1.071341e-02
430, 1.438223e+04, 5.440000e+14, 1.046242e-02
431, 1.462750e+04, 5.440000e+14, 1.046192e-02
432, 1.487695e+04, 5.440000e+14, 1.011269e-02
433, 1.513065e+04, 5.440000e+14, 9.913306e-03
434, 1.538868e+04, 5.440000e+14, 9.689329e-03
435, 1.565111e+04, 5.440000e+14, 9.426383e-03
436, 1.591802e+04, 5.440000e+14, 9.233359e-03
437, 1.618947e+04, 5.440000e+14, 9.207160e-03
438, 1.646556e+04, 5.440000e+14, 9.083062e-03
439, 1.674635e+04, 5.440000e+14, 8.796623e-03
440, 1.703194e+04, 5.440000e+14, 8.804068e-03
441, 1.732239e+04, 5.440000e+14, 8.682280e-03
442, 1.761780e+04, 5.440000e+14, 8.403237e-03
443, 1.791824e+04, 5.440000e+14, 8.222125e-03
444, 1.822381e+04, 5.440000e+14, 8.075407e-03
445, 1.853459e+04, 5.440000e+14, 7.807625e-03
446, 1.885067e+04, 5.440000e+14, 7.613048e-03
447, 1.917214e+04, 5.440000e+14, 7.536777e-03
448, 1.949909e+04, 5.440000e+14, 7.414519e-03
449, 1.983162e+04, 5.440000e+14, 7.265209e-03
450, 2.016981e+04, 5.440000e+14, 7.218669e-03
451, 2.051378e+04, 5.440000e+14, 7.098201e-03
452, 2.086361e+04, 5.440000e+14, 6.912806e-03
453, 2.121941e+04, 5.440000e+14, 6.818075e-03
454, 2.158127e+04, 5.440000e+14, 6.707343e-03
455, 2.194931e+04, 5.440000e+14, 6.467180e-03
456, 2.232362e+04, 5.440000e+14, 6.464907e-03
457, 2.270431e+04, 5.440000e+14, 6.432521e-03
458, 2.309150e+04, 5.440000e+14, 6.173691e-03
459, 2.348529e+04, 5.440000e+14, 6.044699e-03
460, 2.388580e+04, 5.440000e+14, 5.996412e-03
461, 2.429313e+04, 5.440000e+14, 5.625146e-03
462, 2.470741e+04, 5.440000e+14, 5.500372e-03
463, 2.512876e+04, 5.440000e+14, 5.552292e-03
464, 2.555729e+04, 5.440000e+14, 5.403392e-03
465, 2.599313e+04, 5.440000e+14, 5.222165e-03
466, 2.643641e+04, 5.440000e+14, 5.222258e-03
467, 2.688724e+04, 5.440000e+14, 5.222904e-03
468, 2.734576e+04, 5.440000e+14, 4.950300e-03
469, 2.781210e+04, 5.440000e+14, 4.994352e-03
470, 2.828639e+04, 5.440000e+14, 4.902937e-03
471, 2.876877e+04, 5.440000e+14, 4.672892e-03
472, 2.925938e+04, 5.440000e+14, 4.693490e-03
473, 2.975835e+04, 5.440000e+14, 4.592236e-03
474, 3.026583e+04, 5.440000e+14, 4.384127e-03
475, 3.078197e+04, 5.440000e+14, 4.381488e-03
476, 3.130691e+04, 5.440000e+14, 4.254346e-03
477, 3.184080e+04, 5.440000e+14, 4.216151e-03
478, 3.238380e+04, 5.440000e+14, 4.277753e-03
479, 3.293605e+04, 5.440000e+14, 4.013530e-03
480, 3.349773e+04, 5.440000e+14, 3.962116e-03
481, 3.406898e+04, 5.440000e+14, 3.856273e-03
482, 3.464997e+04, 5.440000e+14, 3.686166e-03
483, 3.524088e+04, 5.440000e+14, 3.767687e-03
484, 3.584185e+04, 5.440000e+14, 3.637732e-03
485, 3.645308e+04, 5.440000e+14, 3.414363e-03
486, 3.707473e+04, 5.440000e+14, 3.549947e-03
487, 3.770699e+04, 5.440000e+14, 3.421454e-03
488, 3.835002e+04, 5.440000e+14, 3.273197e-03
489, 3.900402e+04, 5.440000e+14, 3.448841e-03
490, 3.966917e+04, 5.440000e+14, 3.204486e-03
491, 4.034567e+04, 5.440000e+14, 3.134229e-03
492, 4.103370e+04, 5.440000e+14, 3.137333e-03
493, 4.173347e+04, 5.440000e+14, 2.942533e-03
494, 4.244517e+04, 5.440000e+14, 2.903915e-03
495, 4.316901e+04, 5.440000e+14, 2.987499e-03
496, 4.390519e+04, 5.440000e+14, 2.686984e-03
497, 4.465393e+04, 5.440000e+14, 2.720038e-03
498, 4.541543e+04, 5.440000e+14, 2.836048e-03
499, 4.618992e+04, 5.440000e+14, 2.585931e-03
500, 4.697762e+04, 5.440000e+14, 2.602861e-03
501, 4.777875e+04, 5.440000e+14, 2.610270e-03
502, 4.859354e+04, 5.440000e+14, 2.374552e-03
503, 4.942223e+04, 5.440000e+14, 2.455524e-03
504, 5.026505e+04, 5.440000e+14, 2.340163e-03
505, 5.112224e+04, 5.440000e+14, 2.182835e-03
506, 5.199405e+04, 5.440000e+14, 2.224337e-03
507, 5.288073e+04, 5.440000e+14, 2.201677e-03
508, 5.378253e+04, 5.440000e+14, 2.132068e-03
509, 5.469971e+04, 5.440000e+14, 2.112475e-03
510, 5.563253e+04, 5.440000e+14, 2.055730e-03
511, 5.658126e+04, 5.440000e+14, 2.015785e-03
512, 5.754616e+04, 5.440000e+14, 1.978888e-03
513, 5.852752e+04, 5.440000e+14, 1.960229e-03
514, 5.952562e+04, 5.440000e+14, 1.879352e-03
515, 6.054074e+04, 5.440000e+14, 1.802921e-03
516, 6.157317e+04, 5.440000e+14, 1.834968e-03
517, 6.262320e+04, 5.440000e+14, 1.782660e-03
518, 6.369115e+04, 5.440000e+14, 1.776215e-03
519, 6.477730e+04, 5.440000e+14, 1.674584e-03
520, 6.588198e+04, 5.440000e+14, 1.744303e-03
521, 6.700549e+04, 5.440000e+14, 1.642797e-03
522, 6.814817e+04, 5.440000e+14, 1.589846e-03
523, 6.931033e+04, 5.440000e+14, 1.586208e-03
524, 7.049231e+04, 5.440000e+14, 1.503612e-03
525, 7.169445e+04, 5.440000e+14, 1.474096e-03
526, 7.291709e+04, 5.440000e+14, 1.407549e-03
527, 7.416058e+04, 5.440000e+14, 1.354539e-03
528, 7.542527e+04, 5.440000e+14, 1.339093e-03
529, 7.671153e+04, 5.440000e+14, 1.318589e-03
530, 7.801973e+04, 5.440000e+14, 1.280739e-03
531, 7.935024e+04, 5.440000e+14, 1.271026e-03
532, 8.070343e+04, 5.440000e+14, 1.271615e-03
533, 8.207971e+04, 5.440000e+14, 1.247720e-03
534, 8.347945e+04, 5.440000e+14, 1.192365e-03
535, 8.490306e+04, 5.440000e+14, 1.090030e-03
536, 8.635095e+04, 5.440000e+14, 1.098883e-03
537, 8.782354e+04, 5.440000e+14, 1.150835e-03
538, 8.932123e+04, 5.440000e+14, 1.060919e-03
539, 9.084447e+04, 5.440000e+14, 1.061093e-03
540, 9.239368e+04, 5.440000e+14, 1.048149e-03
541, 9.396931e+04, 5.440000e+14, 1.075164e-03
542, 9.557181e+04, 5.440000e+14, 1.038976e-03
543, 9.720164e+04, 5.440000e+14, 9.937636e-04
544, 9.885927e+04, 5.440000e+14, 9.564548e-04
545, 1.005452e+05, 5.440000e+14, 9.578865e-04
546, 1.022598e+05, 5.440000e+14, 8.811365e-04
547, 1.040037e+05, 5.440000e+14, 8.619633e-04
548, 1.057773e+05, 5.440000e+14, 8.344941e-04
549, 1.075812e+05, 5.440000e+14, 8.127845e-04
550, 1.094158e+05, 5.440000e+14, 7.735764e-04
551, 1.112817e+05, 5.440000e+14, 7.894920e-04
552, 1.131795e+05, 5.440000e+14, 7.913527e-04
553, 1.151096e+05, 5.440000e+14, 7.523323e-04
554, 1.170726e+05, 5.440000e+14, 7.154752e-04
555, 1.190691e+05, 5.440000e+14, 7.490831e-04
556, 1.210996e+05, 5.440000e+14, 7.009253e-04
557, 1.231648e+05, 5.440000e+14, 7.032760e-04
558, 1.252652e+05, 5.440000e+14, 6.237453e-04
559, 1.274014e+05, 5.440000e+14, 6.604982e-04
560, 1.295740e+05, 5.440000e+14, 6.395502e-04
561, 1.317837e+05, 5.440000e+14, 5.857949e-04
562, 1.340311e+05, 5.440000e+14, 5.913698e-04
563, 1.363168e+05, 5.440000e+14, 5.884418e-04
564, 1.386414e+05, 5.440000e+14, 5.821178e-04
565, 1.410057e+05, 5.440000e+14, 5.202769e-04
566, 1.434104e+05, 5.440000e+14, 5.587742e-04
567, 1.458560e+05, 5.440000e+14, 5.434115e-04
568, 1.483434e+05, 5.440000e+14, 5.001283e-04
569, 1.508731e+05, 5.440000e+14, 5.168756e-04
570, 1.534461e+05, 5.440000e+14, 4.954906e-04
571, 1.560628e+05, 5.440000e+14, 4.751935e-04
572, 1.587243e+05, 5.440000e+14, 4.872300e-04
573, 1.614310e+05, 5.440000e+14, 4.816340e-04
574, 1.641840e+05, 5.440000e+14, 4.694246e-04
575, 1.669839e+05, 5.440000e+14, 4.619851e-04
576, 1.698316e+05, 5.440000e+14, 4.227407e-04
577, 1.727278e+05, 5.440000e+14, 4.349085e-04
578, 1.756734e+05, 5.440000e+14, 3.895748e-04
579, 1.786692e+05, 5.440000e+14, 3.876328e-04
580, 1.817162e+05, 5.440000e+14, 4.005099e-04
581, 1.848150e+05, 5.440000e+14, 3.588271e-04
582, 1.879668e+05, 5.440000e+14, 3.594957e-04
583, 1.911723e+05, 5.440000e+14, 3.635003e-04
584, 1.944324e+05, 5.440000e+14, 3.232259e-04
585, 1.977482e+05, 5.440000e+14, 3.202462e-04
586, 2.011205e+05, 5.440000e+14, 3.283574e-04
587, 2.045503e+05, 5.440000e+14, 3.236088e-04
588, 2.080385e+05, 5.440000e+14, 2.968276e-04
589, 2.115863e+05, 5.440000e+14, 2.846698e-04
590, 2.151946e+05, 5.440000e+14, 2.999197e-04
591, 2.188644e+05, 5.440000e+14, 2.649568e-04
592, 2.225968e+05, 5.440000e+14, 2.775313e-04
593, 2.263929e+05, 5.440000e+14, 2.958132e-04
594, 2.302536e+05, 5.440000e+14, 2.575645e-04
595, 2.341803e+05, 5.440000e+14, 2.687261e-04
596, 2.381738e+05, 5.440000e+14, 2.669464e-04
597, 2.422355e+05, 5.440000e+14, 2.509961e-04
598, 2.463665e+05, 5.440000e+14, 2.284291e-04
599, 2.505679e+05, 5.440000e+14, 2.410357e-04
600, 2.548409e+05, 5.440000e+14, 2.288834e-04
601, 2.591869e+05, 5.440000e+14, 2.282348e-04
602, 2.636069e+05, 5.440000e+14, 1.975465e-04
603, 2.681023e+05, 5.440000e+14, 2.186110e-04
604, 2.726744e+05, 5.440000e+14, 2.066454e-04
605, 2.773244e+05, 5.440000e+14, 2.063408e-04
606, 2.820537e+05, 5.440000e+14, 1.970841e-04
607, 2.868637e+05, 5.440000e+14, 1.770623e-04
608, 2.917558e+05, 5.440000e+14, 1.858779e-04
609, 2.967312e+05, 5.440000e+14, 1.731709e-04
610, 3.017915e+05, 5.440000e+14, 1.729774e-04
611, 3.069381e+05, 5.440000e+14, 1.757165e-04
612, 3.121724e+05, 5.440000e+14, 1.831225e-04
613, 3.174961e+05, 5.440000e+14, 1.677802e-04
614, 3.229105e+05, 5.440000e+14, 1.513170e-04
615, 3.284172e+05, 5.440000e+14, 1.464141e-04
616, 3.340179e+05, 5.440000e+14, 1.335475e-04
617, 3.397140e+05, 5.440000e+14, 1.274749e-04
618, 3.455073e+05, 5.440000e+14, 1.311322e-04
619, 3.513994e+05, 5.440000e+14, 1.315103e-04
620, 3.573920e+05, 5.440000e+14, 1.335883e-04
621, 3.634868e+05, 5.440000e+14, 1.281634e-04
622, 3.696855e+05, 5.440000e+14, 1.120491e-04
623, 3.759899e+05, 5.440000e+14, 1.119408e-04
624, 3.824018e+05, 5.440000e+14, 1.181987e-04
625, 3.889231e+05, 5.440000e+14, 1.097808e-04
626, 3.955556e+05, 5.440000e+14, 1.084184e-04
627, 4.023012e+05, 5.440000e+14, 1.157996e-04
628, 4.091618e+05, 5.440000e+14, 1.036428e-04
629, 4.161394e+05, 5.440000e+14, 1.031056e-04
630, 4.232360e+05, 5.440000e+14, 1.053883e-04
631, 4.304537e+05, 5.440000e+14, 9.365459e-05
632, 4.377944e+05, 5.440000e+14, 9.175177e-05
633, 4.452603e+05, 5.440000e+14, 9.454168e-05
634, 4.528535e+05, 5.440000e+14, 8.571291e-05
635, 4.605763e+05, 5.440000e+14, 9.295607e-05
636, 4.684307e+05, 5.440000e+14, 8.343096e-05
637, 4.764190e+05, 5.440000e+14, 7.940511e-05
638, 4.845436e+05, 5.440000e+14, 8.143018e-05
639, 4.928068e+05, 5.440000e+14, 7.992797e-05
640, 5.012108e+05, 5.440000e+14, 7.446496e-05
641, 5.097582e+05, 5.440000e+14, 7.576483e-05
642, 5.184514e+05, 5.440000e+14, 6.141853e-05
643, 5.272928e+05, 5.440000e+14, 6.506044e-05
644, 5.362849e+05, 5.440000e+14, 6.543574e-05
645, 5.454304e+05, 5.440000e+14, 5.893649e-05
646, 5.547319e+05, 5.440000e+14, 6.461571e-05
647, 5.641920e+05, 5.440000e+14, 5.600900e-05
648, 5.738134e+05, 5.440000e+14, 5.382064e-05
649, 5.835989e+05, 5.440000e+14, 5.821234e-05
650, 5.935513e+05, 5.440000e+14, 5.871468e-05
651, 6.036734e+05, 5.440000e+14, 5.076895e-05
652, 6.139682e+05, 5.440000e+14, 5.202963e-05
653, 6.244384e+05, 5.440000e+14, 4.874744e-05
654, 6.350873e+05, 5.440000e+14, 4.287411e-05
655, 6.459177e+05, 5.440000e+14, 4.416565e-05
656, 6.569328e+05, 5.440000e+14, 4.723322e-05
657, 6.681358e+05, 5.440000e+14, 3.915271e-05
658, 6.795298e+05, 5.440000e+14, 4.174983e-05
659, 6.911182e+05, 5.440000e+14, 3.711063e-05
660, 7.029041e+05, 5.440000e+14, 4.030762e-05
661, 7.148911e+05, 5.440000e+14, 4.259670e-05
662, 7.270825e+05, 5.440000e+14, 3.490656e-05
663, 7.394817e+05, 5.440000e+14, 3.994551e-05
664, 7.520924e+05, 5.440000e+14, 3.683052e-05
665, 7.649182e+05, 5.440000e+14, 3.530865e-05
666, 7.779627e+05, 5.440000e+14, 3.914400e-05
667, 7.912297e+05, 5.440000e+14, 3.396496e-05
668, 8.047229e+05, 5.440000e+14, 2.840436e-05
669, 8.184462e+05, 5.440000e+14, 2.482388e-05
670, 8.324035e+05, 5.440000e+14, 2.364250e-05
671, 8.465989e+05, 5.440000e+14, 2.646300e-05
672, 8.610363e+05, 5.440000e+14, 2.347454e-05
673, 8.757200e+05, 5.440000e+14, 2.356484e-05
674, 8.906541e+05, 5.440000e+14, 2.254313e-05
675, 9.058428e+05, 5.440000e+14, 2.176668e-05
676, 9.212905e+05, 5.440000e+14, 2.233820e-05
677, 9.370017e+05, 5.440000e+14, 2.113894e-05
678, 9.529809e+05, 5.440000e+14, 2.590222e-05
679, 9.692325e+05, 5.440000e+14, 2.385468e-05
680, 9.857612e+05, 5.440000e+14, 1.939640e-05
681, 1.002572e+06, 5.440000e+14, 2.194568e-05
682, 1.019669e+06, 5.440000e+14, 2.316808e-05
683, 1.037058e+06, 5.440000e+14, 1.566841e-05
684, 1.054744e+06, 5.440000e+14, 1.833594e-05
685, 1.072731e+06, 5.440000e+14, 1.828909e-05
686, 1.091024e+06, 5.440000e+14, 2.153826e-05
687, 1.109630e+06, 5.440000e+14, 2.251064e-05
688, 1.128553e+06, 5.440000e+14, 1.525483e-05
689, 1.147799e+06, 5.440000e+14, 1.606924e-05
690, 1.167373e+06, 5.440000e+14, 1.541021e-05
691, 1.187281e+06, 5.440000e+14, 1.528580e-05
692, 1.207528e+06, 5.440000e+14, 1.447228e-05
693, 1.228120e+06, 5.440000e+14, 1.394621e-05
694, 1.249064e+06, 5.440000e+14, 1.448597e-05
695, 1.270365e+06, 5.440000e+14, 1.219083e-05
696, 1.292029e+06, 5.440000e+14, 1.134118e-05
697, 1.314063e+06, 5.440000e+14, 1.219924e-05
698, 1.336472e+06, 5.440000e+14, 1.490017e-05
699, 1.359263e+06, 5.440000e+14, 1.161630e-05
700, 1.382443e+06, 5.440000e+14, 8.456331e-06
701, 1.406019e+06, 5.440000e+14, 1.163669e-05
702, 1.429996e+06, 5.440000e+14, 8.084222e-06
703, 1.454383e+06, 5.440000e+14, 9.940937e-06
704, 1.479185e+06, 5.440000e+14, 7.814505e-06
705, 1.504410e+06, 5.440000e+14, 1.040617e-05
706, 1.530066e+06, 5.440000e+14, 1.049819e-05
707, 1.556159e+06, 5.440000e+14, 9.199308e-06
708, 1.582696e+06, 5.440000e+14, 1.030357e-05
709, 1.609687e+06, 5.440000e+14, 1.067916e-05
710, 1.637138e+06, 5.440000e+14, 7.593471e-06
711, 1.665057e+06, 5.440000e+14, 7.117008e-06
712, 1.693451e+06, 5.440000e+14, 7.855827e-06
713, 1.722331e+06, 5.440000e+14, 7.488270e-06
714, 1.751702e+06, 5.440000e+14, 6.550693e-06
715, 1.781575e+06, 5.440000e+14, 5.950095e-06
716, 1.811957e+06, 5.440000e+14, 6.435678e-06
717, 1.842857e+06, 5.440000e+14, 6.435377e-06
718, 1.874284e+06, 5.440000e+14, 7.449174e-06
719, 1.906247e+06, 5.440000e+14, 6.061463e-06
720, 1.938755e+06, 5.440000e+14, 5.371893e-06
721, 1.971818e+06, 5.440000e+14, 5.364681e-06
722, 2.005444e+06, 5.440000e+14, 4.820823e-06
723, 2.039644e+06, 5.440000e+14, 5.699546e-06
724, 2.074427e+06, 5.440000e+14, 3.869156e-06
725, 2.109803e+06, 5.440000e+14, 5.299989e-06
726, 2.145783e+06, 5.440000e+14, 4.562676e-06
727, 2.182376e+06, 5.440000e+14, 5.159203e-06
728, 2.219593e+06, 5.440000e+14, 5.581330e-06
729, 2.257444e+06, 5.440000e+14, 4.587601e-06
730, 2.295942e+06, 5.440000e+14, 4.803580e-06
731, 2.335095e+06, 5.440000e+14, 3.597617e-06
732, 2.374917e+06, 5.440000e+14, 3.344233e-06
733, 2.415417e+06, 5.440000e+14, 3.088558e-06
734, 2.456609e+06, 5.440000e+14, 3.792860e-06
735, 2.498502e+06, 5.440000e+14, 4.367979e-06
736, 2.541110e+06, 5.440000e+14, 3.119693e-06
737, 2.584445e+06, 5.440000e+14, 3.161238e-06
738, 2.628519e+06, 5.440000e+14, 3.997181e-06
739, 2.673344e+06, 5.440000e+14, 3.224898e-06
740, 2.718934e+06, 5.440000e+14, 3.450972e-06
741, 2.765301e+06, 5.440000e+14, 2.618835e-06
742, 2.812459e+06, 5.440000e+14, 1.993935e-06
743, 2.860421e+06, 5.440000e+14, 3.089922e-06
744, 2.909201e+06, 5.440000e+14, 2.338202e-06
745, 2.958813e+06, 5.440000e+14, 2.417830e-06
746, 3.009271e+06, 5.440000e+14, 2.562242e-06
747, 3.060590e+06, 5.440000e+14, 2.615308e-06
748, 3.112783e+06, 5.440000e+14, 1.614200e-06
749, 3.165867e+06, 5.440000e+14, 2.583989e-06
750, 3.219856e+06, 5.440000e+14, 2.577206e-06
751, 3.274766e+06, 5.440000e+14, 1.942665e-06
752, 3.330612e+06, 5.440000e+14, 1.482748e-06
753, 3.387410e+06, 5.440000e+14, 1.561003e-06
754, 3.445178e+06, 5.440000e+14, 1.721747e-06
755, 3.503930e+06, 5.440000e+14, 1.498696e-06
756, 3.563684e+06, 5.440000e+14, 1.171130e-06
757, 3.624457e+06, 5.440000e+14, 2.622939e-06
758, 3.686267e+06, 5.440000e+14, 9.146576e-07
759, 3.749130e+06, 5.440000e+14, 1.101079e-06
760, 3.813066e+06, 5.440000e+14, 1.124282e-06
761, 3.878092e+06, 5.440000e+14, 1.203407e-06
762, 3.944227e+06, 5.440000e+14, 7.097274e-07
763, 4.011489e+06, 5.440000e+14, 9.990222e-07
764, 4.079899e+06, 5.440000e+14, 7.392722e-07
765, 4.149476e+06, 5.440000e+14, 6.953436e-07
766, 4.220238e+06, 5.440000e+14, 6.423616e-07
767, 4.292208e+06, 5.440000e+14, 5.379353e-07
768, 4.365405e+06, 5.440000e+14, 5.183399e-07
769, 4.439850e+06, 5.440000e+14, 6.066602e-07
770, 4.515565e+06, 5.440000e+14, 5.804772e-07
771, 4.592571e+06, 5.440000e+14, 4.498315e-07
772, 4.670890e+06, 5.440000e+14, 4.136978e-07
773, 4.750545e+06, 5.440000e+14, 4.911739e-07
774, 4.831559e+06, 5.440000e+14, 3.923715e-07
775, 4.913953e+06, 5.440000e+14, 3.524106e-07
776, 4.997753e+06, 5.440000e+14, 3.957378e-07
777, 5.082982e+06, 5.440000e+14, 3.557196e-07
778, 5.169665e+06, 5.440000e+14, 2.987476e-07
779, 5.257825e+06, 5.440000e+14, 2.678927e-07
780, 5.347489e+06, 5.440000e+14, 2.453884e-07
781, 5.438683e+06, 5.440000e+14, 2.373208e-07
782, 5.531431e+06, 5.440000e+14, 2.192669e-07
783, 5.625761e+06, 5.440000e+14, 1.939223e-07
784, 5.721700e+06, 5.440000e+14, 1.637983e-07
785, 5.819275e+06, 5.440000e+14, 1.426099e-07
786, 5.918513e+06, 5.440000e+14, 1.274282e-07
787, 6.019444e+06, 5.440000e+14, 1.073420e-07
788, 6.122097e+06, 5.440000e+14, 8.913540e-08
789, 6.226500e+06, 5.440000e+14, 7.427716e-08
790, 6.332683e+06, 5.440000e+14, 5.746689e-08
791, 6.440677e+06, 5.440000e+14, 4.327724e-08
792, 6.550513e+06, 5.440000e+14, 3.007115e-08
793, 6.662222e+06, 5.440000e+14, 1.630754e-08
794, 6.775836e+06, 5.440000e+14, 2.989992e-09
795, 6.891387e+06, 5.440000e+14, 1.515451e-10
796, 7.008909e+06, 5.440000e+14, 1.073166e-11
797, 7.128436e+06, 5.440000e+14, 3.978698e-13
798, 7.250000e+06, 5.440000e+14, 2.813459e-14
799, 7.373638e+06, 5.440000e+14, 2.747752e-15
800, 7.499384e+06, 5.440000e+14, 1.078328e-16
801, 7.627274e+06, 5.440000e+14, 0.000000e+00
802, 7.757346e+06, 5.440000e+14, 0.000000e+00
803, 7.889635e+06, 5.440000e+14, 0.000000e+00
804, 8.024181e+06, 5.440000e+14, 0.000000e+00
805, 8.161021e+06, 5.440000e+14, 0.000000e+00
806, 8.300194e+06, 5.440000e+14, 0.000000e+00
807, 8.441742e+06, 5.440000e+14, 0.000000e+00
808, 8.585702e+06, 5.440000e+14, 0.000000e+00
809, 8.732118e+06, 5.440000e+14, 0.000000e+00
810, 8.881031e+06, 5.440000e+14, 0.000000e+00
811, 9.032484e+06, 5.440000e+14, 0.000000e+00
812, 9.186519e+06, 5.440000e+14, 0.000000e+00
813, 9.343181e+06, 5.440000e+14, 0.000000e+00
814, 9.502514e+06, 5.440000e+14, 0.000000e+00
815, 9.664565e+06, 5.440000e+14, 0.000000e+00
816, 9.829379e+06, 5.440000e+14, 0.000000e+00
817, 9.997004e+06, 5.440000e+14, 0.000000e+00
818, 1.016749e+07, 5.440000e+14, 0.000000e+00
819, 1.034088e+07, 5.440000e+14, 0.000000e+00
820, 1.051723e+07, 5.440000e+14, 0.000000e+00
821, 1.069658e+07, 5.440000e+14, 0.000000e+00
822, 1.087900e+07, 5.440000e+14, 0.000000e+00
823, 1.106452e+07, 5.440000e+14, 0.000000e+00
824, 1.125321e+07, 5.440000e+14, 0.000000e+00
825, 1.144511e+07, 5.440000e+14, 0.000000e+00
826, 1.164029e+07, 5.440000e+14, 0.000000e+00
827, 1.183880e+07, 5.440000e+14, 0.000000e+00
828, 1.204069e+07, 5.440000e+14, 0.000000e+00
829, 1.224603e+07, 5.440000e+14, 0.000000e+00
830, 1.245487e+07, 5.440000e+14, 0.000000e+00
831, 1.266726e+07, 5.440000e+14, 0.000000e+00
832, 1.288328e+07, 5.440000e+14, 0.000000e+00
833, 1.310299e+07, 5.440000e+14, 0.000000e+00
834, 1.332644e+07, 5.440000e+14, 0.000000e+00
835, 1.355370e+07, 5.440000e+14, 0.000000e+00
836, 1.378484e+07, 5.440000e+14, 0.000000e+00
837, 1.401992e+07, 5.440000e+14, 0.000000e+00
838, 1.425901e+07, 5.440000e+14, 0.000000e+00
839, 1.450217e+07, 5.440000e+14, 0.000000e+00
840, 1.474948e+07, 5.440000e+14, 0.000000e+00
841, 1.500101e+07, 5.440000e+14, 0.000000e+00
842, 1.525683e+07, 5.440000e+14, 0.000000e+00
843, 1.551702e+07, 5.440000e+14, 0.000000e+00
844, 1.578163e+07, 5.440000e+14, 0.000000e+00
845, 1.605077e+07, 5.440000e+14, 0.000000e+00
846, 1.632449e+07, 5.440000e+14, 0.000000e+00
847, 1.660288e+07, 5.440000e+14, 0.000000e+00
848, 1.688601e+07, 5.440000e+14, 0.000000e+00
849, 1.717398e+07, 5.440000e+14, 0.000000e+00
850, 1.746685e+07, 5.440000e+14, 0.000000e+00
851, 1.776472e+07, 5.440000e+14, 0.000000e+00
852, 1.806767e+07, 5.440000e+14, 0.000000e+00
853, 1.837579e+07, 5.440000e+14, 0.000000e+00
854, 1.868916e+07, 5.440000e+14, 0.000000e+00
855, 1.900788e+07, 5.440000e+14, 0.000000e+00
856, 1.933203e+07, 5.440000e+14, 0.000000e+00
857, 1.966170e+07, 5.440000e+14, 0.000000e+00
858, 1.999700e+07, 5.440000e+14, 0.000000e+00
859, 2.033802e+07, 5.440000e+14, 0.000000e+00
860, 2.068486e+07, 5.440000e+14, 0.000000e+00
861, 2.103760e+07, 5.440000e+14, 0.000000e+00
862, 2.139637e+07, 5.440000e+14, 0.000000e+00
863, 2.176125e+07, 5.440000e+14, 0.000000e+00
864, 2.213235e+07, 5.440000e+14, 0.000000e+00
865, 2.250979e+07, 5.440000e+14, 0.000000e+00
866, 2.289366e+07, 5.440000e+14, 0.000000e+00
867, 2.328407e+07, 5.440000e+14, 0.000000e+00
868, 2.368115e+07, 5.440000e+14, 0.000000e+00
869, 2.408499e+07, 5.440000e+14, 0.000000e+00
870, 2.449573e+07, 5.440000e+14, 0.000000e+00
871, 2.491346e+07, 5.440000e+14, 0.000000e+00
872, 2.533832e+07, 5.440000e+14, 0.000000e+00
873, 2.577043e+07, 5.440000e+14, 0.000000e+00
874, 2.620990e+07, 5.440000e+14, 0.000000e+00
875, 2.665687e+07, 5.440000e+14, 0.000000e+00
876, 2.711147e+07, 5.440000e+14, 0.000000e+00
877, 2.757381e+07, 5.440000e+14, 0.000000e+00
878, 2.804404e+07, 5.440000e+14, 0.000000e+00
879, 2.852229e+07, 5.440000e+14, 0.000000e+00
880, 2.900869e+07, 5.440000e+14, 0.000000e+00
881, 2.950339e+07, 5.440000e+14, 0.000000e+00
882, 3.000652e+07, 5.440000e+14, 0.000000e+00
883, 3.051824e+07, 5.440000e+14, 0.000000e+00
884, 3.103868e+07, 5.440000e+14, 0.000000e+00
885, 3.156800e+07, 5.440000e+14, 0.000000e+00
886, 3.210634e+07, 5.440000e+14, 0.000000e+00
887, 3.265387e+07, 5.440000e+14, 0.000000e+00
888, 3.321073e+07, 5.440000e+14, 0.000000e+00
889, 3.377709e+07, 5.440000e+14, 0.000000e+00
890, 3.435310e+07, 5.440000e+14, 0.000000e+00
891, 3.493894e+07, 5.440000e+14, 0.000000e+00
892, 3.553477e+07, 5.440000e+14, 0.000000e+00
893, 3.614076e+07, 5.440000e+14, 0.000000e+00
894, 3.675709e+07, 5.440000e+14, 0.000000e+00
895, 3.738392e+07, 5.440000e+14, 0.000000e+00
896, 3.802145e+07, 5.440000e+14, 0.000000e+00
897, 3.866984e+07, 5.440000e+14, 0.000000e+00
898, 3.932930e+07, 5.440000e+14, 0.000000e+00
899, 4.000000e+07, 5.440000e+14, 0.000000e+00
