#######################################################
#              BOX-FIT. Release 2 
# Last modified: July 29, 2016, by HJvE 
#
# reference: "Gamma-ray burst afterglow broadband 
#   fitting based directly on hydrodynamics simulations"
#   H.J. van Eerten, A.J. van der Horst, A.I. MacFadyen
#   ApJ (2012) Issue 749, Page 44
#   ArXiv: 1110.5089
#
# Development of the Boxfit code was supported in part 
# by NASA through grant NNX10AF62G issued through the 
# Astrophysics Theory Program and by the NSF through 
# grant AST-1009863.
#######################################################
# BOXFIT Compiled WITH boosted frames support
# I/O settings:
#   using parameter file /Volumes/Storage/taylor/git_projects/SSC_boxfit/settings/1e53/log_ee_eb_1e3_KN/Rsettings.txt
#   base filename BOX files: /Volumes/storage/taylor/git_projects/SSC_boxfit/data/boxboostISM/boxboostISM_
#   Not storing intermediate d F / d t_e
#####################################################
# radiation switches
#   synchrotron self-absorption is enabled
#   synchrotron self-absorption is computed globally for each ray.
#   electron cooling is enabled
#   box data is included
#   Blandford-McKee analytical data is included
#   Calculating forward jet only.
#####################################################
# Model parameter settings:
#   theta_0 = 4.500000e-01 (rad)
#   E_iso = 1.000000e+53 (erg)
#   n_0 = 5.000000e-01 (cm^-3)
#   theta_obs = 0.000000e+00 (rad)
#   p = 2.500000e+00
#   epsilon_B = 1.000000e-05
#   epsilon_E = 1.000000e-01
#   ksi_N = 1.000000e+00
###################################################
# Time and frequency settings
#   nu_0 = 4.550000e+14 (Hz)
#   t_0 = 1.000000e+01 (s), t_1 = 4.000000e+07 (s)
#####################################################
# Observer distance settings
#   luminosity distance: 1.000000e+28 (cm)
#   redshift: 5.000000e-01
#####################################################
# BOX data:
#   number of boxes: 23
#   box 0 : theta_0 = 1.000000e-02
#   box 1 : theta_0 = 2.000000e-02
#   box 2 : theta_0 = 3.000000e-02
#   box 3 : theta_0 = 4.000000e-02
#   box 4 : theta_0 = 4.500000e-02
#   box 5 : theta_0 = 5.000000e-02
#   box 6 : theta_0 = 7.500000e-02
#   box 7 : theta_0 = 1.000000e-01
#   box 8 : theta_0 = 1.250000e-01
#   box 9 : theta_0 = 1.500000e-01
#   box 10 : theta_0 = 1.750000e-01
#   box 11 : theta_0 = 2.000000e-01
#   box 12 : theta_0 = 2.250000e-01
#   box 13 : theta_0 = 2.500000e-01
#   box 14 : theta_0 = 2.750000e-01
#   box 15 : theta_0 = 3.000000e-01
#   box 16 : theta_0 = 3.250000e-01
#   box 17 : theta_0 = 3.500000e-01
#   box 18 : theta_0 = 3.750000e-01
#   box 19 : theta_0 = 4.000000e-01
#   box 20 : theta_0 = 4.250000e-01
#   box 21 : theta_0 = 4.500000e-01
#   box 22 : theta_0 = 5.000000e-01
#   Box boost Lorentz factor: 5.000000e+00
#   Counter-jet data is not available in the BOX files.
#   BOX data for k = 0 (ISM environment).
#####################################################
# Resolution settings:
#   BM / BOX emission time resolution 'res' = 300
#   EDS resolution: phi rays = 60, r rays = 300
#   EDS ur_max computed dynamically
#   Emission time t_0 computed dynamically
#   Emission time t_1 computed dynamically
#   Starting Blandford-McKee fluid Lorentz factor: 3.000000e+02
#   EDS outer radius estimated analytically
#   Emission frame time t0 estimated analytically.
#   Emission frame time t1 estimated analytically.
#####################################################
# i, t (s), nu (Hz), F (mJy)
0, 1.000000e+01, 4.550000e+14, 0.000000e+00
1, 1.017053e+01, 4.550000e+14, 0.000000e+00
2, 1.034398e+01, 4.550000e+14, 0.000000e+00
3, 1.052038e+01, 4.550000e+14, 0.000000e+00
4, 1.069979e+01, 4.550000e+14, 0.000000e+00
5, 1.088226e+01, 4.550000e+14, 0.000000e+00
6, 1.106784e+01, 4.550000e+14, 8.068131e-04
7, 1.125658e+01, 4.550000e+14, 5.133645e-03
8, 1.144854e+01, 4.550000e+14, 1.013406e-02
9, 1.164378e+01, 4.550000e+14, 1.421402e-02
10, 1.184235e+01, 4.550000e+14, 1.784431e-02
11, 1.204430e+01, 4.550000e+14, 2.379384e-02
12, 1.224970e+01, 4.550000e+14, 3.058970e-02
13, 1.245860e+01, 4.550000e+14, 3.615585e-02
14, 1.267106e+01, 4.550000e+14, 4.159888e-02
15, 1.288715e+01, 4.550000e+14, 4.739904e-02
16, 1.310692e+01, 4.550000e+14, 5.227193e-02
17, 1.333043e+01, 4.550000e+14, 5.545305e-02
18, 1.355776e+01, 4.550000e+14, 5.848931e-02
19, 1.378897e+01, 4.550000e+14, 6.551318e-02
20, 1.402412e+01, 4.550000e+14, 7.274063e-02
21, 1.426328e+01, 4.550000e+14, 7.973257e-02
22, 1.450652e+01, 4.550000e+14, 8.670088e-02
23, 1.475391e+01, 4.550000e+14, 9.343310e-02
24, 1.500551e+01, 4.550000e+14, 9.921874e-02
25, 1.526141e+01, 4.550000e+14, 9.992074e-02
26, 1.552167e+01, 4.550000e+14, 1.072070e-01
27, 1.578636e+01, 4.550000e+14, 1.143148e-01
28, 1.605558e+01, 4.550000e+14, 1.211881e-01
29, 1.632938e+01, 4.550000e+14, 1.277138e-01
30, 1.660785e+01, 4.550000e+14, 1.335088e-01
31, 1.689107e+01, 4.550000e+14, 1.382260e-01
32, 1.717912e+01, 4.550000e+14, 1.331797e-01
33, 1.747209e+01, 4.550000e+14, 1.377483e-01
34, 1.777005e+01, 4.550000e+14, 1.419541e-01
35, 1.807309e+01, 4.550000e+14, 1.463945e-01
36, 1.838130e+01, 4.550000e+14, 1.505980e-01
37, 1.869476e+01, 4.550000e+14, 1.548191e-01
38, 1.901357e+01, 4.550000e+14, 1.584683e-01
39, 1.933782e+01, 4.550000e+14, 1.491180e-01
40, 1.966760e+01, 4.550000e+14, 1.453963e-01
41, 2.000300e+01, 4.550000e+14, 1.501701e-01
42, 2.034412e+01, 4.550000e+14, 1.549873e-01
43, 2.069105e+01, 4.550000e+14, 1.600357e-01
44, 2.104391e+01, 4.550000e+14, 1.651895e-01
45, 2.140278e+01, 4.550000e+14, 1.690997e-01
46, 2.176777e+01, 4.550000e+14, 1.688050e-01
47, 2.213899e+01, 4.550000e+14, 1.666701e-01
48, 2.251653e+01, 4.550000e+14, 1.721452e-01
49, 2.290052e+01, 4.550000e+14, 1.786036e-01
50, 2.329105e+01, 4.550000e+14, 1.849812e-01
51, 2.368824e+01, 4.550000e+14, 1.907079e-01
52, 2.409221e+01, 4.550000e+14, 1.913778e-01
53, 2.450307e+01, 4.550000e+14, 1.874094e-01
54, 2.492093e+01, 4.550000e+14, 1.736210e-01
55, 2.534592e+01, 4.550000e+14, 1.804973e-01
56, 2.577815e+01, 4.550000e+14, 1.877101e-01
57, 2.621776e+01, 4.550000e+14, 1.953929e-01
58, 2.666486e+01, 4.550000e+14, 2.000883e-01
59, 2.711959e+01, 4.550000e+14, 2.035648e-01
60, 2.758207e+01, 4.550000e+14, 2.048225e-01
61, 2.805244e+01, 4.550000e+14, 1.957083e-01
62, 2.853084e+01, 4.550000e+14, 2.035090e-01
63, 2.901738e+01, 4.550000e+14, 2.114445e-01
64, 2.951223e+01, 4.550000e+14, 2.181253e-01
65, 3.001552e+01, 4.550000e+14, 2.233264e-01
66, 3.052739e+01, 4.550000e+14, 2.278325e-01
67, 3.104798e+01, 4.550000e+14, 2.304005e-01
68, 3.157746e+01, 4.550000e+14, 2.281636e-01
69, 3.211596e+01, 4.550000e+14, 2.297431e-01
70, 3.266365e+01, 4.550000e+14, 2.362150e-01
71, 3.322068e+01, 4.550000e+14, 2.416388e-01
72, 3.378721e+01, 4.550000e+14, 2.456559e-01
73, 3.436340e+01, 4.550000e+14, 2.494813e-01
74, 3.494941e+01, 4.550000e+14, 2.504393e-01
75, 3.554542e+01, 4.550000e+14, 2.458331e-01
76, 3.615159e+01, 4.550000e+14, 2.331853e-01
77, 3.676810e+01, 4.550000e+14, 2.402406e-01
78, 3.739513e+01, 4.550000e+14, 2.481978e-01
79, 3.803284e+01, 4.550000e+14, 2.559160e-01
80, 3.868143e+01, 4.550000e+14, 2.626273e-01
81, 3.934109e+01, 4.550000e+14, 2.702462e-01
82, 4.001199e+01, 4.550000e+14, 2.722918e-01
83, 4.069433e+01, 4.550000e+14, 2.667544e-01
84, 4.138831e+01, 4.550000e+14, 2.737220e-01
85, 4.209412e+01, 4.550000e+14, 2.809234e-01
86, 4.281197e+01, 4.550000e+14, 2.882423e-01
87, 4.354207e+01, 4.550000e+14, 2.941613e-01
88, 4.428461e+01, 4.550000e+14, 2.963144e-01
89, 4.503981e+01, 4.550000e+14, 2.941819e-01
90, 4.580790e+01, 4.550000e+14, 2.709505e-01
91, 4.658908e+01, 4.550000e+14, 2.790631e-01
92, 4.738359e+01, 4.550000e+14, 2.885202e-01
93, 4.819164e+01, 4.550000e+14, 2.967555e-01
94, 4.901348e+01, 4.550000e+14, 3.029922e-01
95, 4.984933e+01, 4.550000e+14, 3.094171e-01
96, 5.069943e+01, 4.550000e+14, 3.120732e-01
97, 5.156403e+01, 4.550000e+14, 3.089828e-01
98, 5.244338e+01, 4.550000e+14, 3.072470e-01
99, 5.333772e+01, 4.550000e+14, 3.176394e-01
100, 5.424731e+01, 4.550000e+14, 3.254366e-01
101, 5.517241e+01, 4.550000e+14, 3.329050e-01
102, 5.611329e+01, 4.550000e+14, 3.391302e-01
103, 5.707022e+01, 4.550000e+14, 3.433479e-01
104, 5.804346e+01, 4.550000e+14, 3.428882e-01
105, 5.903331e+01, 4.550000e+14, 3.344698e-01
106, 6.004003e+01, 4.550000e+14, 3.428521e-01
107, 6.106392e+01, 4.550000e+14, 3.515582e-01
108, 6.210527e+01, 4.550000e+14, 3.593547e-01
109, 6.316438e+01, 4.550000e+14, 3.660944e-01
110, 6.424155e+01, 4.550000e+14, 3.696809e-01
111, 6.533709e+01, 4.550000e+14, 3.666803e-01
112, 6.645132e+01, 4.550000e+14, 3.414525e-01
113, 6.758454e+01, 4.550000e+14, 3.521386e-01
114, 6.873709e+01, 4.550000e+14, 3.632685e-01
115, 6.990930e+01, 4.550000e+14, 3.726514e-01
116, 7.110149e+01, 4.550000e+14, 3.822738e-01
117, 7.231402e+01, 4.550000e+14, 3.895366e-01
118, 7.354722e+01, 4.550000e+14, 3.923269e-01
119, 7.480146e+01, 4.550000e+14, 3.846038e-01
120, 7.607708e+01, 4.550000e+14, 3.913823e-01
121, 7.737446e+01, 4.550000e+14, 4.005106e-01
122, 7.869396e+01, 4.550000e+14, 4.100185e-01
123, 8.003596e+01, 4.550000e+14, 4.154893e-01
124, 8.140085e+01, 4.550000e+14, 4.175426e-01
125, 8.278902e+01, 4.550000e+14, 4.165132e-01
126, 8.420086e+01, 4.550000e+14, 4.021214e-01
127, 8.563678e+01, 4.550000e+14, 3.888430e-01
128, 8.709718e+01, 4.550000e+14, 3.978452e-01
129, 8.858249e+01, 4.550000e+14, 4.068026e-01
130, 9.009313e+01, 4.550000e+14, 4.121764e-01
131, 9.162953e+01, 4.550000e+14, 4.186059e-01
132, 9.319213e+01, 4.550000e+14, 4.217459e-01
133, 9.478137e+01, 4.550000e+14, 4.174973e-01
134, 9.639772e+01, 4.550000e+14, 4.029261e-01
135, 9.804164e+01, 4.550000e+14, 4.136474e-01
136, 9.971359e+01, 4.550000e+14, 4.207344e-01
137, 1.014141e+02, 4.550000e+14, 4.286007e-01
138, 1.031435e+02, 4.550000e+14, 4.365805e-01
139, 1.049025e+02, 4.550000e+14, 4.365280e-01
140, 1.066914e+02, 4.550000e+14, 4.361980e-01
141, 1.085109e+02, 4.550000e+14, 4.136369e-01
142, 1.103614e+02, 4.550000e+14, 4.235053e-01
143, 1.122434e+02, 4.550000e+14, 4.283491e-01
144, 1.141575e+02, 4.550000e+14, 4.357796e-01
145, 1.161043e+02, 4.550000e+14, 4.411274e-01
146, 1.180843e+02, 4.550000e+14, 4.405694e-01
147, 1.200980e+02, 4.550000e+14, 4.336641e-01
148, 1.221461e+02, 4.550000e+14, 4.054170e-01
149, 1.242291e+02, 4.550000e+14, 3.985751e-01
150, 1.263477e+02, 4.550000e+14, 4.088200e-01
151, 1.285024e+02, 4.550000e+14, 4.184719e-01
152, 1.306938e+02, 4.550000e+14, 4.211493e-01
153, 1.329225e+02, 4.550000e+14, 4.268858e-01
154, 1.351893e+02, 4.550000e+14, 4.326210e-01
155, 1.374948e+02, 4.550000e+14, 4.253586e-01
156, 1.398395e+02, 4.550000e+14, 4.174759e-01
157, 1.422243e+02, 4.550000e+14, 4.281339e-01
158, 1.446497e+02, 4.550000e+14, 4.299598e-01
159, 1.471165e+02, 4.550000e+14, 4.320873e-01
160, 1.496253e+02, 4.550000e+14, 4.370848e-01
161, 1.521770e+02, 4.550000e+14, 4.330752e-01
162, 1.547721e+02, 4.550000e+14, 4.197327e-01
163, 1.574115e+02, 4.550000e+14, 3.775554e-01
164, 1.600959e+02, 4.550000e+14, 3.844453e-01
165, 1.628261e+02, 4.550000e+14, 3.960765e-01
166, 1.656029e+02, 4.550000e+14, 4.025772e-01
167, 1.684270e+02, 4.550000e+14, 4.094649e-01
168, 1.712992e+02, 4.550000e+14, 4.083309e-01
169, 1.742205e+02, 4.550000e+14, 4.066862e-01
170, 1.771915e+02, 4.550000e+14, 3.738564e-01
171, 1.802132e+02, 4.550000e+14, 3.853764e-01
172, 1.832865e+02, 4.550000e+14, 3.932228e-01
173, 1.864122e+02, 4.550000e+14, 4.020094e-01
174, 1.895912e+02, 4.550000e+14, 4.054569e-01
175, 1.928243e+02, 4.550000e+14, 4.095272e-01
176, 1.961127e+02, 4.550000e+14, 4.052266e-01
177, 1.994571e+02, 4.550000e+14, 3.883765e-01
178, 2.028585e+02, 4.550000e+14, 3.803634e-01
179, 2.063179e+02, 4.550000e+14, 3.915354e-01
180, 2.098364e+02, 4.550000e+14, 3.969486e-01
181, 2.134148e+02, 4.550000e+14, 4.020980e-01
182, 2.170543e+02, 4.550000e+14, 4.006178e-01
183, 2.207558e+02, 4.550000e+14, 3.947990e-01
184, 2.245204e+02, 4.550000e+14, 3.683970e-01
185, 2.283493e+02, 4.550000e+14, 3.303768e-01
186, 2.322434e+02, 4.550000e+14, 3.386465e-01
187, 2.362040e+02, 4.550000e+14, 3.482535e-01
188, 2.402321e+02, 4.550000e+14, 3.636878e-01
189, 2.443289e+02, 4.550000e+14, 3.670918e-01
190, 2.484955e+02, 4.550000e+14, 3.737359e-01
191, 2.527332e+02, 4.550000e+14, 3.657690e-01
192, 2.570432e+02, 4.550000e+14, 3.426411e-01
193, 2.614267e+02, 4.550000e+14, 3.500523e-01
194, 2.658849e+02, 4.550000e+14, 3.617441e-01
195, 2.704192e+02, 4.550000e+14, 3.672025e-01
196, 2.750308e+02, 4.550000e+14, 3.714011e-01
197, 2.797210e+02, 4.550000e+14, 3.705505e-01
198, 2.844912e+02, 4.550000e+14, 3.594779e-01
199, 2.893428e+02, 4.550000e+14, 3.031214e-01
200, 2.942771e+02, 4.550000e+14, 3.112867e-01
201, 2.992955e+02, 4.550000e+14, 3.184352e-01
202, 3.043995e+02, 4.550000e+14, 3.249141e-01
203, 3.095906e+02, 4.550000e+14, 3.330386e-01
204, 3.148702e+02, 4.550000e+14, 3.309683e-01
205, 3.202398e+02, 4.550000e+14, 3.304736e-01
206, 3.257010e+02, 4.550000e+14, 3.164392e-01
207, 3.312553e+02, 4.550000e+14, 3.063427e-01
208, 3.369044e+02, 4.550000e+14, 3.142385e-01
209, 3.426498e+02, 4.550000e+14, 3.177280e-01
210, 3.484931e+02, 4.550000e+14, 3.215702e-01
211, 3.544361e+02, 4.550000e+14, 3.263292e-01
212, 3.604805e+02, 4.550000e+14, 3.192715e-01
213, 3.666279e+02, 4.550000e+14, 3.099027e-01
214, 3.728802e+02, 4.550000e+14, 3.022568e-01
215, 3.792391e+02, 4.550000e+14, 3.035350e-01
216, 3.857065e+02, 4.550000e+14, 3.081854e-01
217, 3.922841e+02, 4.550000e+14, 3.080878e-01
218, 3.989739e+02, 4.550000e+14, 3.030792e-01
219, 4.057778e+02, 4.550000e+14, 2.984804e-01
220, 4.126977e+02, 4.550000e+14, 2.768644e-01
221, 4.197356e+02, 4.550000e+14, 2.692464e-01
222, 4.268936e+02, 4.550000e+14, 2.757442e-01
223, 4.341736e+02, 4.550000e+14, 2.796497e-01
224, 4.415777e+02, 4.550000e+14, 2.829583e-01
225, 4.491082e+02, 4.550000e+14, 2.854197e-01
226, 4.567670e+02, 4.550000e+14, 2.786937e-01
227, 4.645565e+02, 4.550000e+14, 2.741458e-01
228, 4.724788e+02, 4.550000e+14, 2.748032e-01
229, 4.805362e+02, 4.550000e+14, 2.719186e-01
230, 4.887310e+02, 4.550000e+14, 2.707162e-01
231, 4.970655e+02, 4.550000e+14, 2.644189e-01
232, 5.055422e+02, 4.550000e+14, 2.555753e-01
233, 5.141634e+02, 4.550000e+14, 2.430175e-01
234, 5.229317e+02, 4.550000e+14, 2.507879e-01
235, 5.318495e+02, 4.550000e+14, 2.619392e-01
236, 5.409194e+02, 4.550000e+14, 2.622663e-01
237, 5.501439e+02, 4.550000e+14, 2.573292e-01
238, 5.595258e+02, 4.550000e+14, 2.478638e-01
239, 5.690676e+02, 4.550000e+14, 2.515096e-01
240, 5.787722e+02, 4.550000e+14, 2.510279e-01
241, 5.886423e+02, 4.550000e+14, 2.464313e-01
242, 5.986807e+02, 4.550000e+14, 2.428947e-01
243, 6.088902e+02, 4.550000e+14, 2.276300e-01
244, 6.192739e+02, 4.550000e+14, 2.376180e-01
245, 6.298347e+02, 4.550000e+14, 2.357511e-01
246, 6.405756e+02, 4.550000e+14, 2.259107e-01
247, 6.514996e+02, 4.550000e+14, 2.198971e-01
248, 6.626099e+02, 4.550000e+14, 2.145910e-01
249, 6.739097e+02, 4.550000e+14, 2.225178e-01
250, 6.854022e+02, 4.550000e+14, 2.300204e-01
251, 6.970907e+02, 4.550000e+14, 2.226740e-01
252, 7.089785e+02, 4.550000e+14, 2.173770e-01
253, 7.210690e+02, 4.550000e+14, 2.132971e-01
254, 7.333657e+02, 4.550000e+14, 2.157899e-01
255, 7.458722e+02, 4.550000e+14, 2.087894e-01
256, 7.585919e+02, 4.550000e+14, 1.984482e-01
257, 7.715285e+02, 4.550000e+14, 1.921613e-01
258, 7.846857e+02, 4.550000e+14, 1.920295e-01
259, 7.980673e+02, 4.550000e+14, 1.985115e-01
260, 8.116771e+02, 4.550000e+14, 2.014925e-01
261, 8.255190e+02, 4.550000e+14, 1.948282e-01
262, 8.395970e+02, 4.550000e+14, 1.913488e-01
263, 8.539150e+02, 4.550000e+14, 1.896620e-01
264, 8.684772e+02, 4.550000e+14, 1.860419e-01
265, 8.832878e+02, 4.550000e+14, 1.865232e-01
266, 8.983509e+02, 4.550000e+14, 1.813777e-01
267, 9.136709e+02, 4.550000e+14, 1.724021e-01
268, 9.292521e+02, 4.550000e+14, 1.731211e-01
269, 9.450991e+02, 4.550000e+14, 1.750714e-01
270, 9.612163e+02, 4.550000e+14, 1.718480e-01
271, 9.776084e+02, 4.550000e+14, 1.675436e-01
272, 9.942800e+02, 4.550000e+14, 1.584812e-01
273, 1.011236e+03, 4.550000e+14, 1.641987e-01
274, 1.028481e+03, 4.550000e+14, 1.684416e-01
275, 1.046020e+03, 4.550000e+14, 1.656738e-01
276, 1.063858e+03, 4.550000e+14, 1.658725e-01
277, 1.082001e+03, 4.550000e+14, 1.579940e-01
278, 1.100453e+03, 4.550000e+14, 1.530322e-01
279, 1.119219e+03, 4.550000e+14, 1.519332e-01
280, 1.138306e+03, 4.550000e+14, 1.483678e-01
281, 1.157718e+03, 4.550000e+14, 1.427434e-01
282, 1.177461e+03, 4.550000e+14, 1.399380e-01
283, 1.197541e+03, 4.550000e+14, 1.343154e-01
284, 1.217963e+03, 4.550000e+14, 1.383226e-01
285, 1.238733e+03, 4.550000e+14, 1.424566e-01
286, 1.259858e+03, 4.550000e+14, 1.419184e-01
287, 1.281343e+03, 4.550000e+14, 1.324264e-01
288, 1.303194e+03, 4.550000e+14, 1.336501e-01
289, 1.325418e+03, 4.550000e+14, 1.317825e-01
290, 1.348021e+03, 4.550000e+14, 1.281008e-01
291, 1.371010e+03, 4.550000e+14, 1.319426e-01
292, 1.394390e+03, 4.550000e+14, 1.251703e-01
293, 1.418169e+03, 4.550000e+14, 1.208428e-01
294, 1.442354e+03, 4.550000e+14, 1.222188e-01
295, 1.466951e+03, 4.550000e+14, 1.206225e-01
296, 1.491968e+03, 4.550000e+14, 1.169132e-01
297, 1.517411e+03, 4.550000e+14, 1.136155e-01
298, 1.543288e+03, 4.550000e+14, 1.107385e-01
299, 1.569607e+03, 4.550000e+14, 1.088051e-01
300, 1.596374e+03, 4.550000e+14, 1.131920e-01
301, 1.623597e+03, 4.550000e+14, 1.120627e-01
302, 1.651285e+03, 4.550000e+14, 1.074870e-01
303, 1.679446e+03, 4.550000e+14, 1.094154e-01
304, 1.708086e+03, 4.550000e+14, 1.021534e-01
305, 1.737215e+03, 4.550000e+14, 1.047805e-01
306, 1.766840e+03, 4.550000e+14, 1.008227e-01
307, 1.796971e+03, 4.550000e+14, 9.560192e-02
308, 1.827616e+03, 4.550000e+14, 9.561346e-02
309, 1.858783e+03, 4.550000e+14, 9.070973e-02
310, 1.890481e+03, 4.550000e+14, 9.587645e-02
311, 1.922721e+03, 4.550000e+14, 9.534522e-02
312, 1.955510e+03, 4.550000e+14, 9.173848e-02
313, 1.988858e+03, 4.550000e+14, 9.383707e-02
314, 2.022775e+03, 4.550000e+14, 8.792738e-02
315, 2.057270e+03, 4.550000e+14, 8.808698e-02
316, 2.092354e+03, 4.550000e+14, 8.769244e-02
317, 2.128036e+03, 4.550000e+14, 8.426413e-02
318, 2.164326e+03, 4.550000e+14, 8.370671e-02
319, 2.201235e+03, 4.550000e+14, 7.936006e-02
320, 2.238774e+03, 4.550000e+14, 7.728237e-02
321, 2.276953e+03, 4.550000e+14, 7.874930e-02
322, 2.315783e+03, 4.550000e+14, 7.568389e-02
323, 2.355275e+03, 4.550000e+14, 7.501057e-02
324, 2.395440e+03, 4.550000e+14, 7.301701e-02
325, 2.436291e+03, 4.550000e+14, 7.054707e-02
326, 2.477838e+03, 4.550000e+14, 7.214010e-02
327, 2.520094e+03, 4.550000e+14, 7.096941e-02
328, 2.563070e+03, 4.550000e+14, 7.192669e-02
329, 2.606779e+03, 4.550000e+14, 6.860281e-02
330, 2.651234e+03, 4.550000e+14, 6.827914e-02
331, 2.696447e+03, 4.550000e+14, 6.621686e-02
332, 2.742430e+03, 4.550000e+14, 6.547523e-02
333, 2.789198e+03, 4.550000e+14, 6.423683e-02
334, 2.836764e+03, 4.550000e+14, 6.455350e-02
335, 2.885140e+03, 4.550000e+14, 6.301038e-02
336, 2.934342e+03, 4.550000e+14, 6.224818e-02
337, 2.984383e+03, 4.550000e+14, 6.239621e-02
338, 3.035277e+03, 4.550000e+14, 6.075828e-02
339, 3.087039e+03, 4.550000e+14, 5.823618e-02
340, 3.139683e+03, 4.550000e+14, 5.810946e-02
341, 3.193226e+03, 4.550000e+14, 5.607293e-02
342, 3.247682e+03, 4.550000e+14, 5.615222e-02
343, 3.303066e+03, 4.550000e+14, 5.504018e-02
344, 3.359394e+03, 4.550000e+14, 5.276716e-02
345, 3.416684e+03, 4.550000e+14, 5.139275e-02
346, 3.474950e+03, 4.550000e+14, 5.020042e-02
347, 3.534210e+03, 4.550000e+14, 4.943148e-02
348, 3.594480e+03, 4.550000e+14, 5.020651e-02
349, 3.655779e+03, 4.550000e+14, 5.033296e-02
350, 3.718122e+03, 4.550000e+14, 4.950141e-02
351, 3.781529e+03, 4.550000e+14, 4.920331e-02
352, 3.846017e+03, 4.550000e+14, 4.720108e-02
353, 3.911605e+03, 4.550000e+14, 4.807234e-02
354, 3.978312e+03, 4.550000e+14, 4.662902e-02
355, 4.046156e+03, 4.550000e+14, 4.523820e-02
356, 4.115157e+03, 4.550000e+14, 4.439891e-02
357, 4.185334e+03, 4.550000e+14, 4.271950e-02
358, 4.256709e+03, 4.550000e+14, 4.160436e-02
359, 4.329300e+03, 4.550000e+14, 4.043183e-02
360, 4.403130e+03, 4.550000e+14, 4.003068e-02
361, 4.478219e+03, 4.550000e+14, 4.036032e-02
362, 4.554588e+03, 4.550000e+14, 3.957140e-02
363, 4.632259e+03, 4.550000e+14, 3.853525e-02
364, 4.711255e+03, 4.550000e+14, 3.882095e-02
365, 4.791598e+03, 4.550000e+14, 3.844236e-02
366, 4.873312e+03, 4.550000e+14, 3.749920e-02
367, 4.956419e+03, 4.550000e+14, 3.707667e-02
368, 5.040943e+03, 4.550000e+14, 3.641469e-02
369, 5.126908e+03, 4.550000e+14, 3.534362e-02
370, 5.214340e+03, 4.550000e+14, 3.460547e-02
371, 5.303262e+03, 4.550000e+14, 3.395598e-02
372, 5.393701e+03, 4.550000e+14, 3.334414e-02
373, 5.485683e+03, 4.550000e+14, 3.260204e-02
374, 5.579232e+03, 4.550000e+14, 3.270305e-02
375, 5.674378e+03, 4.550000e+14, 3.252419e-02
376, 5.771145e+03, 4.550000e+14, 3.143258e-02
377, 5.869563e+03, 4.550000e+14, 3.070270e-02
378, 5.969660e+03, 4.550000e+14, 3.015297e-02
379, 6.071463e+03, 4.550000e+14, 2.975572e-02
380, 6.175003e+03, 4.550000e+14, 2.914358e-02
381, 6.280308e+03, 4.550000e+14, 2.983626e-02
382, 6.387409e+03, 4.550000e+14, 2.881780e-02
383, 6.496336e+03, 4.550000e+14, 2.792417e-02
384, 6.607121e+03, 4.550000e+14, 2.748394e-02
385, 6.719796e+03, 4.550000e+14, 2.682128e-02
386, 6.834391e+03, 4.550000e+14, 2.654212e-02
387, 6.950941e+03, 4.550000e+14, 2.579828e-02
388, 7.069479e+03, 4.550000e+14, 2.514844e-02
389, 7.190038e+03, 4.550000e+14, 2.501223e-02
390, 7.312653e+03, 4.550000e+14, 2.499945e-02
391, 7.437359e+03, 4.550000e+14, 2.413415e-02
392, 7.564192e+03, 4.550000e+14, 2.438691e-02
393, 7.693187e+03, 4.550000e+14, 2.407876e-02
394, 7.824383e+03, 4.550000e+14, 2.318459e-02
395, 7.957816e+03, 4.550000e+14, 2.263894e-02
396, 8.093524e+03, 4.550000e+14, 2.187616e-02
397, 8.231547e+03, 4.550000e+14, 2.138990e-02
398, 8.371923e+03, 4.550000e+14, 2.132482e-02
399, 8.514693e+03, 4.550000e+14, 2.153899e-02
400, 8.659898e+03, 4.550000e+14, 2.099624e-02
401, 8.807579e+03, 4.550000e+14, 2.056637e-02
402, 8.957779e+03, 4.550000e+14, 1.967274e-02
403, 9.110540e+03, 4.550000e+14, 1.954140e-02
404, 9.265907e+03, 4.550000e+14, 1.941777e-02
405, 9.423922e+03, 4.550000e+14, 1.858460e-02
406, 9.584633e+03, 4.550000e+14, 1.815501e-02
407, 9.748084e+03, 4.550000e+14, 1.821494e-02
408, 9.914323e+03, 4.550000e+14, 1.785774e-02
409, 1.008340e+04, 4.550000e+14, 1.805521e-02
410, 1.025535e+04, 4.550000e+14, 1.753625e-02
411, 1.043024e+04, 4.550000e+14, 1.700449e-02
412, 1.060811e+04, 4.550000e+14, 1.677451e-02
413, 1.078902e+04, 4.550000e+14, 1.671700e-02
414, 1.097301e+04, 4.550000e+14, 1.617209e-02
415, 1.116014e+04, 4.550000e+14, 1.577473e-02
416, 1.135046e+04, 4.550000e+14, 1.523076e-02
417, 1.154402e+04, 4.550000e+14, 1.526306e-02
418, 1.174089e+04, 4.550000e+14, 1.526436e-02
419, 1.194111e+04, 4.550000e+14, 1.488731e-02
420, 1.214475e+04, 4.550000e+14, 1.436874e-02
421, 1.235186e+04, 4.550000e+14, 1.424873e-02
422, 1.256250e+04, 4.550000e+14, 1.419455e-02
423, 1.277673e+04, 4.550000e+14, 1.390401e-02
424, 1.299462e+04, 4.550000e+14, 1.353319e-02
425, 1.321622e+04, 4.550000e+14, 1.291490e-02
426, 1.344160e+04, 4.550000e+14, 1.257813e-02
427, 1.367083e+04, 4.550000e+14, 1.271944e-02
428, 1.390397e+04, 4.550000e+14, 1.253176e-02
429, 1.414108e+04, 4.550000e+14, 1.224950e-02
430, 1.438223e+04, 4.550000e+14, 1.196252e-02
431, 1.462750e+04, 4.550000e+14, 1.196195e-02
432, 1.487695e+04, 4.550000e+14, 1.156265e-02
433, 1.513065e+04, 4.550000e+14, 1.133468e-02
434, 1.538868e+04, 4.550000e+14, 1.107859e-02
435, 1.565111e+04, 4.550000e+14, 1.077794e-02
436, 1.591802e+04, 4.550000e+14, 1.055724e-02
437, 1.618947e+04, 4.550000e+14, 1.052728e-02
438, 1.646556e+04, 4.550000e+14, 1.038539e-02
439, 1.674635e+04, 4.550000e+14, 1.005788e-02
440, 1.703194e+04, 4.550000e+14, 1.006640e-02
441, 1.732239e+04, 4.550000e+14, 9.927146e-03
442, 1.761780e+04, 4.550000e+14, 9.608094e-03
443, 1.791824e+04, 4.550000e+14, 9.401014e-03
444, 1.822381e+04, 4.550000e+14, 9.233260e-03
445, 1.853459e+04, 4.550000e+14, 8.927083e-03
446, 1.885067e+04, 4.550000e+14, 8.704607e-03
447, 1.917214e+04, 4.550000e+14, 8.617401e-03
448, 1.949909e+04, 4.550000e+14, 8.477614e-03
449, 1.983162e+04, 4.550000e+14, 8.306896e-03
450, 2.016981e+04, 4.550000e+14, 8.253682e-03
451, 2.051378e+04, 4.550000e+14, 8.115942e-03
452, 2.086361e+04, 4.550000e+14, 7.903965e-03
453, 2.121941e+04, 4.550000e+14, 7.795651e-03
454, 2.158127e+04, 4.550000e+14, 7.669042e-03
455, 2.194931e+04, 4.550000e+14, 7.394445e-03
456, 2.232362e+04, 4.550000e+14, 7.391846e-03
457, 2.270431e+04, 4.550000e+14, 7.354816e-03
458, 2.309150e+04, 4.550000e+14, 7.058875e-03
459, 2.348529e+04, 4.550000e+14, 6.911388e-03
460, 2.388580e+04, 4.550000e+14, 6.856179e-03
461, 2.429313e+04, 4.550000e+14, 6.431680e-03
462, 2.470741e+04, 4.550000e+14, 6.289016e-03
463, 2.512876e+04, 4.550000e+14, 6.348380e-03
464, 2.555729e+04, 4.550000e+14, 6.178131e-03
465, 2.599313e+04, 4.550000e+14, 5.970919e-03
466, 2.643641e+04, 4.550000e+14, 5.971026e-03
467, 2.688724e+04, 4.550000e+14, 5.971764e-03
468, 2.734576e+04, 4.550000e+14, 5.660074e-03
469, 2.781210e+04, 4.550000e+14, 5.710442e-03
470, 2.828639e+04, 4.550000e+14, 5.605921e-03
471, 2.876877e+04, 4.550000e+14, 5.342892e-03
472, 2.925938e+04, 4.550000e+14, 5.366443e-03
473, 2.975835e+04, 4.550000e+14, 5.250671e-03
474, 3.026583e+04, 4.550000e+14, 5.012723e-03
475, 3.078197e+04, 4.550000e+14, 5.009706e-03
476, 3.130691e+04, 4.550000e+14, 4.864334e-03
477, 3.184080e+04, 4.550000e+14, 4.820664e-03
478, 3.238380e+04, 4.550000e+14, 4.891097e-03
479, 3.293605e+04, 4.550000e+14, 4.588990e-03
480, 3.349773e+04, 4.550000e+14, 4.530205e-03
481, 3.406898e+04, 4.550000e+14, 4.409186e-03
482, 3.464997e+04, 4.550000e+14, 4.214689e-03
483, 3.524088e+04, 4.550000e+14, 4.307899e-03
484, 3.584185e+04, 4.550000e+14, 4.159310e-03
485, 3.645308e+04, 4.550000e+14, 3.903915e-03
486, 3.707473e+04, 4.550000e+14, 4.058939e-03
487, 3.770699e+04, 4.550000e+14, 3.912023e-03
488, 3.835002e+04, 4.550000e+14, 3.742508e-03
489, 3.900402e+04, 4.550000e+14, 3.943336e-03
490, 3.966917e+04, 4.550000e+14, 3.663946e-03
491, 4.034567e+04, 4.550000e+14, 3.583615e-03
492, 4.103370e+04, 4.550000e+14, 3.587164e-03
493, 4.173347e+04, 4.550000e+14, 3.364433e-03
494, 4.244517e+04, 4.550000e+14, 3.320279e-03
495, 4.316901e+04, 4.550000e+14, 3.415846e-03
496, 4.390519e+04, 4.550000e+14, 3.072244e-03
497, 4.465393e+04, 4.550000e+14, 3.110037e-03
498, 4.541543e+04, 4.550000e+14, 3.242680e-03
499, 4.618992e+04, 4.550000e+14, 2.956702e-03
500, 4.697762e+04, 4.550000e+14, 2.976060e-03
501, 4.777875e+04, 4.550000e+14, 2.984531e-03
502, 4.859354e+04, 4.550000e+14, 2.715016e-03
503, 4.942223e+04, 4.550000e+14, 2.807597e-03
504, 5.026505e+04, 4.550000e+14, 2.675696e-03
505, 5.112224e+04, 4.550000e+14, 2.495810e-03
506, 5.199405e+04, 4.550000e+14, 2.543263e-03
507, 5.288073e+04, 4.550000e+14, 2.517354e-03
508, 5.378253e+04, 4.550000e+14, 2.437764e-03
509, 5.469971e+04, 4.550000e+14, 2.415362e-03
510, 5.563253e+04, 4.550000e+14, 2.350481e-03
511, 5.658126e+04, 4.550000e+14, 2.304808e-03
512, 5.754616e+04, 4.550000e+14, 2.262621e-03
513, 5.852752e+04, 4.550000e+14, 2.241286e-03
514, 5.952562e+04, 4.550000e+14, 2.148814e-03
515, 6.054074e+04, 4.550000e+14, 2.061424e-03
516, 6.157317e+04, 4.550000e+14, 2.098066e-03
517, 6.262320e+04, 4.550000e+14, 2.038258e-03
518, 6.369115e+04, 4.550000e+14, 2.030889e-03
519, 6.477730e+04, 4.550000e+14, 1.914686e-03
520, 6.588198e+04, 4.550000e+14, 1.994402e-03
521, 6.700549e+04, 4.550000e+14, 1.878342e-03
522, 6.814817e+04, 4.550000e+14, 1.817799e-03
523, 6.931033e+04, 4.550000e+14, 1.813639e-03
524, 7.049231e+04, 4.550000e+14, 1.719200e-03
525, 7.169445e+04, 4.550000e+14, 1.685452e-03
526, 7.291709e+04, 4.550000e+14, 1.609364e-03
527, 7.416058e+04, 4.550000e+14, 1.548753e-03
528, 7.542527e+04, 4.550000e+14, 1.531093e-03
529, 7.671153e+04, 4.550000e+14, 1.507648e-03
530, 7.801973e+04, 4.550000e+14, 1.464372e-03
531, 7.935024e+04, 4.550000e+14, 1.453266e-03
532, 8.070343e+04, 4.550000e+14, 1.453939e-03
533, 8.207971e+04, 4.550000e+14, 1.426619e-03
534, 8.347945e+04, 4.550000e+14, 1.363327e-03
535, 8.490306e+04, 4.550000e+14, 1.246318e-03
536, 8.635095e+04, 4.550000e+14, 1.256441e-03
537, 8.782354e+04, 4.550000e+14, 1.315842e-03
538, 8.932123e+04, 4.550000e+14, 1.213034e-03
539, 9.084447e+04, 4.550000e+14, 1.213232e-03
540, 9.239368e+04, 4.550000e+14, 1.198432e-03
541, 9.396931e+04, 4.550000e+14, 1.229321e-03
542, 9.557181e+04, 4.550000e+14, 1.187944e-03
543, 9.720164e+04, 4.550000e+14, 1.136250e-03
544, 9.885927e+04, 4.550000e+14, 1.093591e-03
545, 1.005452e+05, 4.550000e+14, 1.095228e-03
546, 1.022598e+05, 4.550000e+14, 1.007474e-03
547, 1.040037e+05, 4.550000e+14, 9.855517e-04
548, 1.057773e+05, 4.550000e+14, 9.541439e-04
549, 1.075812e+05, 4.550000e+14, 9.293216e-04
550, 1.094158e+05, 4.550000e+14, 8.844919e-04
551, 1.112817e+05, 4.550000e+14, 9.026894e-04
552, 1.131795e+05, 4.550000e+14, 9.048169e-04
553, 1.151096e+05, 4.550000e+14, 8.602017e-04
554, 1.170726e+05, 4.550000e+14, 8.180601e-04
555, 1.190691e+05, 4.550000e+14, 8.564867e-04
556, 1.210996e+05, 4.550000e+14, 8.014241e-04
557, 1.231648e+05, 4.550000e+14, 8.041117e-04
558, 1.252652e+05, 4.550000e+14, 7.131780e-04
559, 1.274014e+05, 4.550000e+14, 7.552004e-04
560, 1.295740e+05, 4.550000e+14, 7.312490e-04
561, 1.317837e+05, 4.550000e+14, 6.697863e-04
562, 1.340311e+05, 4.550000e+14, 6.761605e-04
563, 1.363168e+05, 4.550000e+14, 6.728127e-04
564, 1.386414e+05, 4.550000e+14, 6.655819e-04
565, 1.410057e+05, 4.550000e+14, 5.948742e-04
566, 1.434104e+05, 4.550000e+14, 6.388913e-04
567, 1.458560e+05, 4.550000e+14, 6.213259e-04
568, 1.483434e+05, 4.550000e+14, 5.718368e-04
569, 1.508731e+05, 4.550000e+14, 5.909852e-04
570, 1.534461e+05, 4.550000e+14, 5.665341e-04
571, 1.560628e+05, 4.550000e+14, 5.433268e-04
572, 1.587243e+05, 4.550000e+14, 5.570891e-04
573, 1.614310e+05, 4.550000e+14, 5.506908e-04
574, 1.641840e+05, 4.550000e+14, 5.367307e-04
575, 1.669839e+05, 4.550000e+14, 5.282245e-04
576, 1.698316e+05, 4.550000e+14, 4.833533e-04
577, 1.727278e+05, 4.550000e+14, 4.972657e-04
578, 1.756734e+05, 4.550000e+14, 4.454321e-04
579, 1.786692e+05, 4.550000e+14, 4.432116e-04
580, 1.817162e+05, 4.550000e+14, 4.579350e-04
581, 1.848150e+05, 4.550000e+14, 4.102757e-04
582, 1.879668e+05, 4.550000e+14, 4.110402e-04
583, 1.911723e+05, 4.550000e+14, 4.156190e-04
584, 1.944324e+05, 4.550000e+14, 3.695701e-04
585, 1.977482e+05, 4.550000e+14, 3.661631e-04
586, 2.011205e+05, 4.550000e+14, 3.754373e-04
587, 2.045503e+05, 4.550000e+14, 3.700078e-04
588, 2.080385e+05, 4.550000e+14, 3.393868e-04
589, 2.115863e+05, 4.550000e+14, 3.254857e-04
590, 2.151946e+05, 4.550000e+14, 3.429222e-04
591, 2.188644e+05, 4.550000e+14, 3.029464e-04
592, 2.225968e+05, 4.550000e+14, 3.173238e-04
593, 2.263929e+05, 4.550000e+14, 3.382270e-04
594, 2.302536e+05, 4.550000e+14, 2.944941e-04
595, 2.341803e+05, 4.550000e+14, 3.072561e-04
596, 2.381738e+05, 4.550000e+14, 3.052212e-04
597, 2.422355e+05, 4.550000e+14, 2.869839e-04
598, 2.463665e+05, 4.550000e+14, 2.611813e-04
599, 2.505679e+05, 4.550000e+14, 2.755955e-04
600, 2.548409e+05, 4.550000e+14, 2.617007e-04
601, 2.591869e+05, 4.550000e+14, 2.609592e-04
602, 2.636069e+05, 4.550000e+14, 2.258707e-04
603, 2.681023e+05, 4.550000e+14, 2.499555e-04
604, 2.726744e+05, 4.550000e+14, 2.362743e-04
605, 2.773244e+05, 4.550000e+14, 2.359260e-04
606, 2.820537e+05, 4.550000e+14, 2.253421e-04
607, 2.868637e+05, 4.550000e+14, 2.024495e-04
608, 2.917558e+05, 4.550000e+14, 2.125291e-04
609, 2.967312e+05, 4.550000e+14, 1.980002e-04
610, 3.017915e+05, 4.550000e+14, 1.977790e-04
611, 3.069381e+05, 4.550000e+14, 2.009108e-04
612, 3.121724e+05, 4.550000e+14, 2.093786e-04
613, 3.174961e+05, 4.550000e+14, 1.918365e-04
614, 3.229105e+05, 4.550000e+14, 1.730128e-04
615, 3.284172e+05, 4.550000e+14, 1.674069e-04
616, 3.340179e+05, 4.550000e+14, 1.526955e-04
617, 3.397140e+05, 4.550000e+14, 1.457523e-04
618, 3.455073e+05, 4.550000e+14, 1.499339e-04
619, 3.513994e+05, 4.550000e+14, 1.503662e-04
620, 3.573920e+05, 4.550000e+14, 1.527422e-04
621, 3.634868e+05, 4.550000e+14, 1.465395e-04
622, 3.696855e+05, 4.550000e+14, 1.281147e-04
623, 3.759899e+05, 4.550000e+14, 1.279909e-04
624, 3.824018e+05, 4.550000e+14, 1.351460e-04
625, 3.889231e+05, 4.550000e+14, 1.255211e-04
626, 3.955556e+05, 4.550000e+14, 1.239635e-04
627, 4.023012e+05, 4.550000e+14, 1.324030e-04
628, 4.091618e+05, 4.550000e+14, 1.185031e-04
629, 4.161394e+05, 4.550000e+14, 1.178888e-04
630, 4.232360e+05, 4.550000e+14, 1.204989e-04
631, 4.304537e+05, 4.550000e+14, 1.070828e-04
632, 4.377944e+05, 4.550000e+14, 1.049071e-04
633, 4.452603e+05, 4.550000e+14, 1.080971e-04
634, 4.528535e+05, 4.550000e+14, 9.800243e-05
635, 4.605763e+05, 4.550000e+14, 1.062841e-04
636, 4.684307e+05, 4.550000e+14, 9.539330e-05
637, 4.764190e+05, 4.550000e+14, 9.079023e-05
638, 4.845436e+05, 4.550000e+14, 9.310565e-05
639, 4.928068e+05, 4.550000e+14, 9.138805e-05
640, 5.012108e+05, 4.550000e+14, 8.514175e-05
641, 5.097582e+05, 4.550000e+14, 8.662799e-05
642, 5.184514e+05, 4.550000e+14, 7.022473e-05
643, 5.272928e+05, 4.550000e+14, 7.438882e-05
644, 5.362849e+05, 4.550000e+14, 7.481793e-05
645, 5.454304e+05, 4.550000e+14, 6.738681e-05
646, 5.547319e+05, 4.550000e+14, 7.388032e-05
647, 5.641920e+05, 4.550000e+14, 6.403957e-05
648, 5.738134e+05, 4.550000e+14, 6.153744e-05
649, 5.835989e+05, 4.550000e+14, 6.655883e-05
650, 5.935513e+05, 4.550000e+14, 6.713319e-05
651, 6.036734e+05, 4.550000e+14, 5.804820e-05
652, 6.139682e+05, 4.550000e+14, 5.948964e-05
653, 6.244384e+05, 4.550000e+14, 5.573685e-05
654, 6.350873e+05, 4.550000e+14, 4.902140e-05
655, 6.459177e+05, 4.550000e+14, 5.049812e-05
656, 6.569328e+05, 4.550000e+14, 5.400552e-05
657, 6.681358e+05, 4.550000e+14, 4.476643e-05
658, 6.795298e+05, 4.550000e+14, 4.773593e-05
659, 6.911182e+05, 4.550000e+14, 4.243156e-05
660, 7.029041e+05, 4.550000e+14, 4.608693e-05
661, 7.148911e+05, 4.550000e+14, 4.870422e-05
662, 7.270825e+05, 4.550000e+14, 3.991147e-05
663, 7.394817e+05, 4.550000e+14, 4.567290e-05
664, 7.520924e+05, 4.550000e+14, 4.211129e-05
665, 7.649182e+05, 4.550000e+14, 4.037121e-05
666, 7.779627e+05, 4.550000e+14, 4.475647e-05
667, 7.912297e+05, 4.550000e+14, 3.883486e-05
668, 8.047229e+05, 4.550000e+14, 3.247698e-05
669, 8.184462e+05, 4.550000e+14, 2.838313e-05
670, 8.324035e+05, 4.550000e+14, 2.703236e-05
671, 8.465989e+05, 4.550000e+14, 3.025727e-05
672, 8.610363e+05, 4.550000e+14, 2.684032e-05
673, 8.757200e+05, 4.550000e+14, 2.694357e-05
674, 8.906541e+05, 4.550000e+14, 2.577536e-05
675, 9.058428e+05, 4.550000e+14, 2.488758e-05
676, 9.212905e+05, 4.550000e+14, 2.554106e-05
677, 9.370017e+05, 4.550000e+14, 2.416984e-05
678, 9.529809e+05, 4.550000e+14, 2.961608e-05
679, 9.692325e+05, 4.550000e+14, 2.727496e-05
680, 9.857612e+05, 4.550000e+14, 2.217746e-05
681, 1.002572e+06, 4.550000e+14, 2.509226e-05
682, 1.019669e+06, 4.550000e+14, 2.648992e-05
683, 1.037058e+06, 4.550000e+14, 1.791495e-05
684, 1.054744e+06, 4.550000e+14, 2.096495e-05
685, 1.072731e+06, 4.550000e+14, 2.091138e-05
686, 1.091024e+06, 4.550000e+14, 2.462642e-05
687, 1.109630e+06, 4.550000e+14, 2.573822e-05
688, 1.128553e+06, 4.550000e+14, 1.744207e-05
689, 1.147799e+06, 4.550000e+14, 1.837325e-05
690, 1.167373e+06, 4.550000e+14, 1.761973e-05
691, 1.187281e+06, 4.550000e+14, 1.747748e-05
692, 1.207528e+06, 4.550000e+14, 1.654731e-05
693, 1.228120e+06, 4.550000e+14, 1.594582e-05
694, 1.249064e+06, 4.550000e+14, 1.656297e-05
695, 1.270365e+06, 4.550000e+14, 1.393875e-05
696, 1.292029e+06, 4.550000e+14, 1.296728e-05
697, 1.314063e+06, 4.550000e+14, 1.394837e-05
698, 1.336472e+06, 4.550000e+14, 1.703656e-05
699, 1.359263e+06, 4.550000e+14, 1.328185e-05
700, 1.382443e+06, 4.550000e+14, 9.668800e-06
701, 1.406019e+06, 4.550000e+14, 1.330516e-05
702, 1.429996e+06, 4.550000e+14, 9.243339e-06
703, 1.454383e+06, 4.550000e+14, 1.136627e-05
704, 1.479185e+06, 4.550000e+14, 8.934949e-06
705, 1.504410e+06, 4.550000e+14, 1.189821e-05
706, 1.530066e+06, 4.550000e+14, 1.200343e-05
707, 1.556159e+06, 4.550000e+14, 1.051831e-05
708, 1.582696e+06, 4.550000e+14, 1.178090e-05
709, 1.609687e+06, 4.550000e+14, 1.221034e-05
710, 1.637138e+06, 4.550000e+14, 8.682224e-06
711, 1.665057e+06, 4.550000e+14, 8.137445e-06
712, 1.693451e+06, 4.550000e+14, 8.982197e-06
713, 1.722331e+06, 4.550000e+14, 8.561939e-06
714, 1.751702e+06, 4.550000e+14, 7.489931e-06
715, 1.781575e+06, 4.550000e+14, 6.803221e-06
716, 1.811957e+06, 4.550000e+14, 7.358426e-06
717, 1.842857e+06, 4.550000e+14, 7.358082e-06
718, 1.874284e+06, 4.550000e+14, 8.517237e-06
719, 1.906247e+06, 4.550000e+14, 6.930556e-06
720, 1.938755e+06, 4.550000e+14, 6.142115e-06
721, 1.971818e+06, 4.550000e+14, 6.133869e-06
722, 2.005444e+06, 4.550000e+14, 5.512033e-06
723, 2.039644e+06, 4.550000e+14, 6.516747e-06
724, 2.074427e+06, 4.550000e+14, 4.423915e-06
725, 2.109803e+06, 4.550000e+14, 6.059902e-06
726, 2.145783e+06, 4.550000e+14, 5.216872e-06
727, 2.182376e+06, 4.550000e+14, 5.898930e-06
728, 2.219593e+06, 4.550000e+14, 6.381581e-06
729, 2.257444e+06, 4.550000e+14, 5.245372e-06
730, 2.295942e+06, 4.550000e+14, 5.492318e-06
731, 2.335095e+06, 4.550000e+14, 4.113443e-06
732, 2.374917e+06, 4.550000e+14, 3.823729e-06
733, 2.415417e+06, 4.550000e+14, 3.531396e-06
734, 2.456609e+06, 4.550000e+14, 4.336680e-06
735, 2.498502e+06, 4.550000e+14, 4.994261e-06
736, 2.541110e+06, 4.550000e+14, 3.566995e-06
737, 2.584445e+06, 4.550000e+14, 3.614497e-06
738, 2.628519e+06, 4.550000e+14, 4.570298e-06
739, 2.673344e+06, 4.550000e+14, 3.687284e-06
740, 2.718934e+06, 4.550000e+14, 3.945773e-06
741, 2.765301e+06, 4.550000e+14, 2.994324e-06
742, 2.812459e+06, 4.550000e+14, 2.279825e-06
743, 2.860421e+06, 4.550000e+14, 3.532955e-06
744, 2.909201e+06, 4.550000e+14, 2.673454e-06
745, 2.958813e+06, 4.550000e+14, 2.764499e-06
746, 3.009271e+06, 4.550000e+14, 2.929616e-06
747, 3.060590e+06, 4.550000e+14, 2.990292e-06
748, 3.112783e+06, 4.550000e+14, 1.845644e-06
749, 3.165867e+06, 4.550000e+14, 2.954482e-06
750, 3.219856e+06, 4.550000e+14, 2.946726e-06
751, 3.274766e+06, 4.550000e+14, 2.221205e-06
752, 3.330612e+06, 4.550000e+14, 1.695345e-06
753, 3.387410e+06, 4.550000e+14, 1.784820e-06
754, 3.445178e+06, 4.550000e+14, 1.968611e-06
755, 3.503930e+06, 4.550000e+14, 1.713579e-06
756, 3.563684e+06, 4.550000e+14, 1.339047e-06
757, 3.624457e+06, 4.550000e+14, 2.999016e-06
758, 3.686267e+06, 4.550000e+14, 1.045801e-06
759, 3.749130e+06, 4.550000e+14, 1.258952e-06
760, 3.813066e+06, 4.550000e+14, 1.285481e-06
761, 3.878092e+06, 4.550000e+14, 1.375952e-06
762, 3.944227e+06, 4.550000e+14, 8.114882e-07
763, 4.011489e+06, 4.550000e+14, 1.142262e-06
764, 4.079899e+06, 4.550000e+14, 8.452691e-07
765, 4.149476e+06, 4.550000e+14, 7.950420e-07
766, 4.220238e+06, 4.550000e+14, 7.344635e-07
767, 4.292208e+06, 4.550000e+14, 6.150645e-07
768, 4.365405e+06, 4.550000e+14, 5.926595e-07
769, 4.439850e+06, 4.550000e+14, 6.936432e-07
770, 4.515565e+06, 4.550000e+14, 6.637060e-07
771, 4.592571e+06, 4.550000e+14, 5.143284e-07
772, 4.670890e+06, 4.550000e+14, 4.730138e-07
773, 4.750545e+06, 4.550000e+14, 5.615984e-07
774, 4.831559e+06, 4.550000e+14, 4.486298e-07
775, 4.913953e+06, 4.550000e+14, 4.029393e-07
776, 4.997753e+06, 4.550000e+14, 4.524787e-07
777, 5.082982e+06, 4.550000e+14, 4.067227e-07
778, 5.169665e+06, 4.550000e+14, 3.415821e-07
779, 5.257825e+06, 4.550000e+14, 3.063032e-07
780, 5.347489e+06, 4.550000e+14, 2.805722e-07
781, 5.438683e+06, 4.550000e+14, 2.713478e-07
782, 5.531431e+06, 4.550000e+14, 2.507054e-07
783, 5.625761e+06, 4.550000e+14, 2.217269e-07
784, 5.721700e+06, 4.550000e+14, 1.872837e-07
785, 5.819275e+06, 4.550000e+14, 1.630574e-07
786, 5.918513e+06, 4.550000e+14, 1.456989e-07
787, 6.019444e+06, 4.550000e+14, 1.227327e-07
788, 6.122097e+06, 4.550000e+14, 1.019156e-07
789, 6.226500e+06, 4.550000e+14, 8.492703e-08
790, 6.332683e+06, 4.550000e+14, 6.570650e-08
791, 6.440677e+06, 4.550000e+14, 4.948233e-08
792, 6.550513e+06, 4.550000e+14, 3.438276e-08
793, 6.662222e+06, 4.550000e+14, 1.864572e-08
794, 6.775836e+06, 4.550000e+14, 3.418697e-09
795, 6.891387e+06, 4.550000e+14, 1.732737e-10
796, 7.008909e+06, 4.550000e+14, 1.227037e-11
797, 7.128436e+06, 4.550000e+14, 4.549164e-13
798, 7.250000e+06, 4.550000e+14, 3.216853e-14
799, 7.373638e+06, 4.550000e+14, 3.141725e-15
800, 7.499384e+06, 4.550000e+14, 1.232939e-16
801, 7.627274e+06, 4.550000e+14, 0.000000e+00
802, 7.757346e+06, 4.550000e+14, 0.000000e+00
803, 7.889635e+06, 4.550000e+14, 0.000000e+00
804, 8.024181e+06, 4.550000e+14, 0.000000e+00
805, 8.161021e+06, 4.550000e+14, 0.000000e+00
806, 8.300194e+06, 4.550000e+14, 0.000000e+00
807, 8.441742e+06, 4.550000e+14, 0.000000e+00
808, 8.585702e+06, 4.550000e+14, 0.000000e+00
809, 8.732118e+06, 4.550000e+14, 0.000000e+00
810, 8.881031e+06, 4.550000e+14, 0.000000e+00
811, 9.032484e+06, 4.550000e+14, 0.000000e+00
812, 9.186519e+06, 4.550000e+14, 0.000000e+00
813, 9.343181e+06, 4.550000e+14, 0.000000e+00
814, 9.502514e+06, 4.550000e+14, 0.000000e+00
815, 9.664565e+06, 4.550000e+14, 0.000000e+00
816, 9.829379e+06, 4.550000e+14, 0.000000e+00
817, 9.997004e+06, 4.550000e+14, 0.000000e+00
818, 1.016749e+07, 4.550000e+14, 0.000000e+00
819, 1.034088e+07, 4.550000e+14, 0.000000e+00
820, 1.051723e+07, 4.550000e+14, 0.000000e+00
821, 1.069658e+07, 4.550000e+14, 0.000000e+00
822, 1.087900e+07, 4.550000e+14, 0.000000e+00
823, 1.106452e+07, 4.550000e+14, 0.000000e+00
824, 1.125321e+07, 4.550000e+14, 0.000000e+00
825, 1.144511e+07, 4.550000e+14, 0.000000e+00
826, 1.164029e+07, 4.550000e+14, 0.000000e+00
827, 1.183880e+07, 4.550000e+14, 0.000000e+00
828, 1.204069e+07, 4.550000e+14, 0.000000e+00
829, 1.224603e+07, 4.550000e+14, 0.000000e+00
830, 1.245487e+07, 4.550000e+14, 0.000000e+00
831, 1.266726e+07, 4.550000e+14, 0.000000e+00
832, 1.288328e+07, 4.550000e+14, 0.000000e+00
833, 1.310299e+07, 4.550000e+14, 0.000000e+00
834, 1.332644e+07, 4.550000e+14, 0.000000e+00
835, 1.355370e+07, 4.550000e+14, 0.000000e+00
836, 1.378484e+07, 4.550000e+14, 0.000000e+00
837, 1.401992e+07, 4.550000e+14, 0.000000e+00
838, 1.425901e+07, 4.550000e+14, 0.000000e+00
839, 1.450217e+07, 4.550000e+14, 0.000000e+00
840, 1.474948e+07, 4.550000e+14, 0.000000e+00
841, 1.500101e+07, 4.550000e+14, 0.000000e+00
842, 1.525683e+07, 4.550000e+14, 0.000000e+00
843, 1.551702e+07, 4.550000e+14, 0.000000e+00
844, 1.578163e+07, 4.550000e+14, 0.000000e+00
845, 1.605077e+07, 4.550000e+14, 0.000000e+00
846, 1.632449e+07, 4.550000e+14, 0.000000e+00
847, 1.660288e+07, 4.550000e+14, 0.000000e+00
848, 1.688601e+07, 4.550000e+14, 0.000000e+00
849, 1.717398e+07, 4.550000e+14, 0.000000e+00
850, 1.746685e+07, 4.550000e+14, 0.000000e+00
851, 1.776472e+07, 4.550000e+14, 0.000000e+00
852, 1.806767e+07, 4.550000e+14, 0.000000e+00
853, 1.837579e+07, 4.550000e+14, 0.000000e+00
854, 1.868916e+07, 4.550000e+14, 0.000000e+00
855, 1.900788e+07, 4.550000e+14, 0.000000e+00
856, 1.933203e+07, 4.550000e+14, 0.000000e+00
857, 1.966170e+07, 4.550000e+14, 0.000000e+00
858, 1.999700e+07, 4.550000e+14, 0.000000e+00
859, 2.033802e+07, 4.550000e+14, 0.000000e+00
860, 2.068486e+07, 4.550000e+14, 0.000000e+00
861, 2.103760e+07, 4.550000e+14, 0.000000e+00
862, 2.139637e+07, 4.550000e+14, 0.000000e+00
863, 2.176125e+07, 4.550000e+14, 0.000000e+00
864, 2.213235e+07, 4.550000e+14, 0.000000e+00
865, 2.250979e+07, 4.550000e+14, 0.000000e+00
866, 2.289366e+07, 4.550000e+14, 0.000000e+00
867, 2.328407e+07, 4.550000e+14, 0.000000e+00
868, 2.368115e+07, 4.550000e+14, 0.000000e+00
869, 2.408499e+07, 4.550000e+14, 0.000000e+00
870, 2.449573e+07, 4.550000e+14, 0.000000e+00
871, 2.491346e+07, 4.550000e+14, 0.000000e+00
872, 2.533832e+07, 4.550000e+14, 0.000000e+00
873, 2.577043e+07, 4.550000e+14, 0.000000e+00
874, 2.620990e+07, 4.550000e+14, 0.000000e+00
875, 2.665687e+07, 4.550000e+14, 0.000000e+00
876, 2.711147e+07, 4.550000e+14, 0.000000e+00
877, 2.757381e+07, 4.550000e+14, 0.000000e+00
878, 2.804404e+07, 4.550000e+14, 0.000000e+00
879, 2.852229e+07, 4.550000e+14, 0.000000e+00
880, 2.900869e+07, 4.550000e+14, 0.000000e+00
881, 2.950339e+07, 4.550000e+14, 0.000000e+00
882, 3.000652e+07, 4.550000e+14, 0.000000e+00
883, 3.051824e+07, 4.550000e+14, 0.000000e+00
884, 3.103868e+07, 4.550000e+14, 0.000000e+00
885, 3.156800e+07, 4.550000e+14, 0.000000e+00
886, 3.210634e+07, 4.550000e+14, 0.000000e+00
887, 3.265387e+07, 4.550000e+14, 0.000000e+00
888, 3.321073e+07, 4.550000e+14, 0.000000e+00
889, 3.377709e+07, 4.550000e+14, 0.000000e+00
890, 3.435310e+07, 4.550000e+14, 0.000000e+00
891, 3.493894e+07, 4.550000e+14, 0.000000e+00
892, 3.553477e+07, 4.550000e+14, 0.000000e+00
893, 3.614076e+07, 4.550000e+14, 0.000000e+00
894, 3.675709e+07, 4.550000e+14, 0.000000e+00
895, 3.738392e+07, 4.550000e+14, 0.000000e+00
896, 3.802145e+07, 4.550000e+14, 0.000000e+00
897, 3.866984e+07, 4.550000e+14, 0.000000e+00
898, 3.932930e+07, 4.550000e+14, 0.000000e+00
899, 4.000000e+07, 4.550000e+14, 0.000000e+00
